{
    "type": "FeatureCollection",
    "features": [
        {
            "type": "Feature",
            "geometry": {
                "type": "Polygon",
                "coordinates": [
                    [
                        [
                            "0.435156",
                            "52.334006",
                            "0.000000"
                        ],
                        [
                            "0.460673",
                            "52.311617",
                            "0.000000"
                        ],
                        [
                            "0.475619",
                            "52.303391",
                            "0.000000"
                        ],
                        [
                            "0.485418",
                            "52.295281",
                            "0.000000"
                        ],
                        [
                            "0.413826",
                            "52.265222",
                            "0.000000"
                        ],
                        [
                            "0.369513",
                            "52.227408",
                            "0.000000"
                        ],
                        [
                            "0.497597",
                            "52.191593",
                            "0.000000"
                        ],
                        [
                            "0.420644",
                            "52.160276",
                            "0.000000"
                        ],
                        [
                            "0.393750",
                            "52.087411",
                            "0.000000"
                        ],
                        [
                            "0.325570",
                            "52.069839",
                            "0.000000"
                        ],
                        [
                            "0.164742",
                            "52.048121",
                            "0.000000"
                        ],
                        [
                            "0.075906",
                            "52.007107",
                            "0.000000"
                        ],
                        [
                            "-0.037233",
                            "52.058080",
                            "0.000000"
                        ],
                        [
                            "-0.156451",
                            "52.082188",
                            "0.000000"
                        ],
                        [
                            "-0.185688",
                            "52.140368",
                            "0.000000"
                        ],
                        [
                            "-0.244061",
                            "52.191460",
                            "0.000000"
                        ],
                        [
                            "-0.289968",
                            "52.238791",
                            "0.000000"
                        ],
                        [
                            "-0.378072",
                            "52.256596",
                            "0.000000"
                        ],
                        [
                            "-0.403002",
                            "52.284503",
                            "0.000000"
                        ],
                        [
                            "-0.446925",
                            "52.315550",
                            "0.000000"
                        ],
                        [
                            "-0.433975",
                            "52.393925",
                            "0.000000"
                        ],
                        [
                            "-0.349225",
                            "52.479148",
                            "0.000000"
                        ],
                        [
                            "-0.383393",
                            "52.513569",
                            "0.000000"
                        ],
                        [
                            "-0.404320",
                            "52.548917",
                            "0.000000"
                        ],
                        [
                            "-0.459341",
                            "52.576465",
                            "0.000000"
                        ],
                        [
                            "-0.491161",
                            "52.642129",
                            "0.000000"
                        ],
                        [
                            "-0.411941",
                            "52.648241",
                            "0.000000"
                        ],
                        [
                            "-0.366936",
                            "52.659973",
                            "0.000000"
                        ],
                        [
                            "-0.338791",
                            "52.667188",
                            "0.000000"
                        ],
                        [
                            "-0.317914",
                            "52.674769",
                            "0.000000"
                        ],
                        [
                            "-0.196193",
                            "52.655105",
                            "0.000000"
                        ],
                        [
                            "0.062463",
                            "52.725539",
                            "0.000000"
                        ],
                        [
                            "0.182600",
                            "52.673405",
                            "0.000000"
                        ],
                        [
                            "0.199178",
                            "52.591725",
                            "0.000000"
                        ],
                        [
                            "0.230577",
                            "52.527945",
                            "0.000000"
                        ],
                        [
                            "0.372371",
                            "52.488715",
                            "0.000000"
                        ],
                        [
                            "0.431984",
                            "52.352164",
                            "0.000000"
                        ]
                    ]
                ]
            },
            "properties": {
                "stroke-width": 0,
                "fill": "4dedf7",
                "fill-opacity": 0.8
            }
        }
    ]
}