{
    "type": "FeatureCollection",
    "features": [
        {
            "type": "Feature",
            "geometry": {
                "type": "Polygon",
                "coordinates": [
                    [
                        [
                            "0.247503",
                            "52.079096",
                            "0.000000"
                        ],
                        [
                            "0.308558",
                            "52.080335",
                            "0.000000"
                        ],
                        [
                            "0.332240",
                            "52.062594",
                            "0.000000"
                        ],
                        [
                            "0.350416",
                            "52.047809",
                            "0.000000"
                        ],
                        [
                            "0.375126",
                            "52.037151",
                            "0.000000"
                        ],
                        [
                            "0.385404",
                            "52.054911",
                            "0.000000"
                        ],
                        [
                            "0.414571",
                            "52.065063",
                            "0.000000"
                        ],
                        [
                            "0.445333",
                            "52.068628",
                            "0.000000"
                        ],
                        [
                            "0.467987",
                            "52.077499",
                            "0.000000"
                        ],
                        [
                            "0.487714",
                            "52.062453",
                            "0.000000"
                        ],
                        [
                            "0.499927",
                            "52.056735",
                            "0.000000"
                        ],
                        [
                            "0.510314",
                            "52.059347",
                            "0.000000"
                        ],
                        [
                            "0.527428",
                            "52.058334",
                            "0.000000"
                        ],
                        [
                            "0.546451",
                            "52.060109",
                            "0.000000"
                        ],
                        [
                            "0.549501",
                            "52.064998",
                            "0.000000"
                        ],
                        [
                            "0.560872",
                            "52.070948",
                            "0.000000"
                        ],
                        [
                            "0.576199",
                            "52.072295",
                            "0.000000"
                        ],
                        [
                            "0.585047",
                            "52.074134",
                            "0.000000"
                        ],
                        [
                            "0.594101",
                            "52.074744",
                            "0.000000"
                        ],
                        [
                            "0.601999",
                            "52.076539",
                            "0.000000"
                        ],
                        [
                            "0.615973",
                            "52.077651",
                            "0.000000"
                        ],
                        [
                            "0.625259",
                            "52.079216",
                            "0.000000"
                        ],
                        [
                            "0.638209",
                            "52.086193",
                            "0.000000"
                        ],
                        [
                            "0.653020",
                            "52.083648",
                            "0.000000"
                        ],
                        [
                            "0.667432",
                            "52.086164",
                            "0.000000"
                        ],
                        [
                            "0.680916",
                            "52.085849",
                            "0.000000"
                        ],
                        [
                            "0.694159",
                            "52.078622",
                            "0.000000"
                        ],
                        [
                            "0.706639",
                            "52.073813",
                            "0.000000"
                        ],
                        [
                            "0.709361",
                            "52.066709",
                            "0.000000"
                        ],
                        [
                            "0.707424",
                            "52.058569",
                            "0.000000"
                        ],
                        [
                            "0.715536",
                            "52.051368",
                            "0.000000"
                        ],
                        [
                            "0.700614",
                            "52.048456",
                            "0.000000"
                        ],
                        [
                            "0.711447",
                            "52.034906",
                            "0.000000"
                        ],
                        [
                            "0.733950",
                            "52.031625",
                            "0.000000"
                        ],
                        [
                            "0.741969",
                            "52.018048",
                            "0.000000"
                        ],
                        [
                            "0.745202",
                            "52.007765",
                            "0.000000"
                        ],
                        [
                            "0.759151",
                            "51.998329",
                            "0.000000"
                        ],
                        [
                            "0.759884",
                            "51.986090",
                            "0.000000"
                        ],
                        [
                            "0.773451",
                            "51.979601",
                            "0.000000"
                        ],
                        [
                            "0.781450",
                            "51.966498",
                            "0.000000"
                        ],
                        [
                            "0.792778",
                            "51.963460",
                            "0.000000"
                        ],
                        [
                            "0.814538",
                            "51.963625",
                            "0.000000"
                        ],
                        [
                            "0.833271",
                            "51.966089",
                            "0.000000"
                        ],
                        [
                            "0.851495",
                            "51.961206",
                            "0.000000"
                        ],
                        [
                            "0.868571",
                            "51.969182",
                            "0.000000"
                        ],
                        [
                            "0.885502",
                            "51.968229",
                            "0.000000"
                        ],
                        [
                            "0.899471",
                            "51.973057",
                            "0.000000"
                        ],
                        [
                            "0.923396",
                            "51.976179",
                            "0.000000"
                        ],
                        [
                            "0.936347",
                            "51.972475",
                            "0.000000"
                        ],
                        [
                            "0.952670",
                            "51.974666",
                            "0.000000"
                        ],
                        [
                            "0.964279",
                            "51.972944",
                            "0.000000"
                        ],
                        [
                            "0.971770",
                            "51.962259",
                            "0.000000"
                        ],
                        [
                            "1.001254",
                            "51.963391",
                            "0.000000"
                        ],
                        [
                            "1.011684",
                            "51.955012",
                            "0.000000"
                        ],
                        [
                            "1.025788",
                            "51.955864",
                            "0.000000"
                        ],
                        [
                            "1.041145",
                            "51.956286",
                            "0.000000"
                        ],
                        [
                            "1.053221",
                            "51.954903",
                            "0.000000"
                        ],
                        [
                            "1.066346",
                            "51.947367",
                            "0.000000"
                        ],
                        [
                            "1.099275",
                            "51.950012",
                            "0.000000"
                        ],
                        [
                            "1.156757",
                            "51.948618",
                            "0.000000"
                        ],
                        [
                            "1.242156",
                            "51.947896",
                            "0.000000"
                        ],
                        [
                            "1.283716",
                            "51.946770",
                            "0.000000"
                        ],
                        [
                            "1.291566",
                            "51.938896",
                            "0.000000"
                        ],
                        [
                            "1.274856",
                            "51.928858",
                            "0.000000"
                        ],
                        [
                            "1.262188",
                            "51.916285",
                            "0.000000"
                        ],
                        [
                            "1.260300",
                            "51.907289",
                            "0.000000"
                        ],
                        [
                            "1.254648",
                            "51.894287",
                            "0.000000"
                        ],
                        [
                            "1.269934",
                            "51.884778",
                            "0.000000"
                        ],
                        [
                            "1.292670",
                            "51.866353",
                            "0.000000"
                        ],
                        [
                            "1.275059",
                            "51.848739",
                            "0.000000"
                        ],
                        [
                            "1.258887",
                            "51.835769",
                            "0.000000"
                        ],
                        [
                            "1.243275",
                            "51.823384",
                            "0.000000"
                        ],
                        [
                            "1.233362",
                            "51.817316",
                            "0.000000"
                        ],
                        [
                            "1.211783",
                            "51.806512",
                            "0.000000"
                        ],
                        [
                            "1.178172",
                            "51.795266",
                            "0.000000"
                        ],
                        [
                            "1.144491",
                            "51.781728",
                            "0.000000"
                        ],
                        [
                            "1.129233",
                            "51.776235",
                            "0.000000"
                        ],
                        [
                            "1.080273",
                            "51.770955",
                            "0.000000"
                        ],
                        [
                            "1.033888",
                            "51.770174",
                            "0.000000"
                        ],
                        [
                            "1.027592",
                            "51.786139",
                            "0.000000"
                        ],
                        [
                            "1.022460",
                            "51.792882",
                            "0.000000"
                        ],
                        [
                            "1.030628",
                            "51.790099",
                            "0.000000"
                        ],
                        [
                            "1.023074",
                            "51.794683",
                            "0.000000"
                        ],
                        [
                            "1.008705",
                            "51.796500",
                            "0.000000"
                        ],
                        [
                            "1.004016",
                            "51.785323",
                            "0.000000"
                        ],
                        [
                            "1.003770",
                            "51.781624",
                            "0.000000"
                        ],
                        [
                            "0.999966",
                            "51.779581",
                            "0.000000"
                        ],
                        [
                            "0.999689",
                            "51.780865",
                            "0.000000"
                        ],
                        [
                            "0.999145",
                            "51.781410",
                            "0.000000"
                        ],
                        [
                            "0.992625",
                            "51.779507",
                            "0.000000"
                        ],
                        [
                            "0.990742",
                            "51.779978",
                            "0.000000"
                        ],
                        [
                            "0.994695",
                            "51.777062",
                            "0.000000"
                        ],
                        [
                            "0.985617",
                            "51.777032",
                            "0.000000"
                        ],
                        [
                            "0.984878",
                            "51.777258",
                            "0.000000"
                        ],
                        [
                            "0.975068",
                            "51.776455",
                            "0.000000"
                        ],
                        [
                            "0.964351",
                            "51.770457",
                            "0.000000"
                        ],
                        [
                            "0.958788",
                            "51.771397",
                            "0.000000"
                        ],
                        [
                            "0.949510",
                            "51.770722",
                            "0.000000"
                        ],
                        [
                            "0.940950",
                            "51.770847",
                            "0.000000"
                        ],
                        [
                            "0.931144",
                            "51.770966",
                            "0.000000"
                        ],
                        [
                            "0.898549",
                            "51.761145",
                            "0.000000"
                        ],
                        [
                            "0.895466",
                            "51.744672",
                            "0.000000"
                        ],
                        [
                            "0.920616",
                            "51.748699",
                            "0.000000"
                        ],
                        [
                            "0.973647",
                            "51.722221",
                            "0.000000"
                        ],
                        [
                            "0.972028",
                            "51.659781",
                            "0.000000"
                        ],
                        [
                            "0.960183",
                            "51.643792",
                            "0.000000"
                        ],
                        [
                            "0.920576",
                            "51.625619",
                            "0.000000"
                        ],
                        [
                            "0.928066",
                            "51.618291",
                            "0.000000"
                        ],
                        [
                            "0.980332",
                            "51.637131",
                            "0.000000"
                        ],
                        [
                            "1.038007",
                            "51.654476",
                            "0.000000"
                        ],
                        [
                            "1.074659",
                            "51.657623",
                            "0.000000"
                        ],
                        [
                            "1.069768",
                            "51.640887",
                            "0.000000"
                        ],
                        [
                            "1.063648",
                            "51.637809",
                            "0.000000"
                        ],
                        [
                            "1.047978",
                            "51.635851",
                            "0.000000"
                        ],
                        [
                            "1.045351",
                            "51.638492",
                            "0.000000"
                        ],
                        [
                            "1.037906",
                            "51.640853",
                            "0.000000"
                        ],
                        [
                            "1.032835",
                            "51.631810",
                            "0.000000"
                        ],
                        [
                            "1.027594",
                            "51.633186",
                            "0.000000"
                        ],
                        [
                            "1.014219",
                            "51.630698",
                            "0.000000"
                        ],
                        [
                            "1.018866",
                            "51.627772",
                            "0.000000"
                        ],
                        [
                            "1.023014",
                            "51.625821",
                            "0.000000"
                        ],
                        [
                            "1.007787",
                            "51.620214",
                            "0.000000"
                        ],
                        [
                            "1.014392",
                            "51.614782",
                            "0.000000"
                        ],
                        [
                            "0.998110",
                            "51.604047",
                            "0.000000"
                        ],
                        [
                            "1.001170",
                            "51.600290",
                            "0.000000"
                        ],
                        [
                            "0.980459",
                            "51.593227",
                            "0.000000"
                        ],
                        [
                            "0.959245",
                            "51.583430",
                            "0.000000"
                        ],
                        [
                            "0.979886",
                            "51.584706",
                            "0.000000"
                        ],
                        [
                            "0.966239",
                            "51.577560",
                            "0.000000"
                        ],
                        [
                            "0.987671",
                            "51.581675",
                            "0.000000"
                        ],
                        [
                            "0.971520",
                            "51.575079",
                            "0.000000"
                        ],
                        [
                            "0.948945",
                            "51.568400",
                            "0.000000"
                        ],
                        [
                            "0.931575",
                            "51.568494",
                            "0.000000"
                        ],
                        [
                            "0.982322",
                            "51.570982",
                            "0.000000"
                        ],
                        [
                            "0.978614",
                            "51.556434",
                            "0.000000"
                        ],
                        [
                            "0.952570",
                            "51.559530",
                            "0.000000"
                        ],
                        [
                            "0.941832",
                            "51.557938",
                            "0.000000"
                        ],
                        [
                            "0.931601",
                            "51.558357",
                            "0.000000"
                        ],
                        [
                            "0.932496",
                            "51.556805",
                            "0.000000"
                        ],
                        [
                            "0.917694",
                            "51.550960",
                            "0.000000"
                        ],
                        [
                            "0.942541",
                            "51.546795",
                            "0.000000"
                        ],
                        [
                            "0.915995",
                            "51.541324",
                            "0.000000"
                        ],
                        [
                            "0.907093",
                            "51.539926",
                            "0.000000"
                        ],
                        [
                            "0.894866",
                            "51.539743",
                            "0.000000"
                        ],
                        [
                            "0.891157",
                            "51.539259",
                            "0.000000"
                        ],
                        [
                            "0.926420",
                            "51.535434",
                            "0.000000"
                        ],
                        [
                            "0.930599",
                            "51.524609",
                            "0.000000"
                        ],
                        [
                            "0.915958",
                            "51.522699",
                            "0.000000"
                        ],
                        [
                            "0.900604",
                            "51.522711",
                            "0.000000"
                        ],
                        [
                            "0.899195",
                            "51.528673",
                            "0.000000"
                        ],
                        [
                            "0.899678",
                            "51.531053",
                            "0.000000"
                        ],
                        [
                            "0.882833",
                            "51.534203",
                            "0.000000"
                        ],
                        [
                            "0.889389",
                            "51.530021",
                            "0.000000"
                        ],
                        [
                            "0.888830",
                            "51.529387",
                            "0.000000"
                        ],
                        [
                            "0.873982",
                            "51.528313",
                            "0.000000"
                        ],
                        [
                            "0.862661",
                            "51.522771",
                            "0.000000"
                        ],
                        [
                            "0.878605",
                            "51.520231",
                            "0.000000"
                        ],
                        [
                            "0.860962",
                            "51.510383",
                            "0.000000"
                        ],
                        [
                            "0.847338",
                            "51.509177",
                            "0.000000"
                        ],
                        [
                            "0.838594",
                            "51.521531",
                            "0.000000"
                        ],
                        [
                            "0.846205",
                            "51.513890",
                            "0.000000"
                        ],
                        [
                            "0.842231",
                            "51.512107",
                            "0.000000"
                        ],
                        [
                            "0.822198",
                            "51.508184",
                            "0.000000"
                        ],
                        [
                            "0.818326",
                            "51.509671",
                            "0.000000"
                        ],
                        [
                            "0.802183",
                            "51.504491",
                            "0.000000"
                        ],
                        [
                            "0.787943",
                            "51.504480",
                            "0.000000"
                        ],
                        [
                            "0.788472",
                            "51.511006",
                            "0.000000"
                        ],
                        [
                            "0.787379",
                            "51.511292",
                            "0.000000"
                        ],
                        [
                            "0.779840",
                            "51.517902",
                            "0.000000"
                        ],
                        [
                            "0.773344",
                            "51.521788",
                            "0.000000"
                        ],
                        [
                            "0.780079",
                            "51.515198",
                            "0.000000"
                        ],
                        [
                            "0.770435",
                            "51.508294",
                            "0.000000"
                        ],
                        [
                            "0.762064",
                            "51.515975",
                            "0.000000"
                        ],
                        [
                            "0.756242",
                            "51.517902",
                            "0.000000"
                        ],
                        [
                            "0.758003",
                            "51.513642",
                            "0.000000"
                        ],
                        [
                            "0.744627",
                            "51.512211",
                            "0.000000"
                        ],
                        [
                            "0.741069",
                            "51.513697",
                            "0.000000"
                        ],
                        [
                            "0.739427",
                            "51.519951",
                            "0.000000"
                        ],
                        [
                            "0.727225",
                            "51.517924",
                            "0.000000"
                        ],
                        [
                            "0.718215",
                            "51.521802",
                            "0.000000"
                        ],
                        [
                            "0.707388",
                            "51.523735",
                            "0.000000"
                        ],
                        [
                            "0.701441",
                            "51.526048",
                            "0.000000"
                        ],
                        [
                            "0.677729",
                            "51.512643",
                            "0.000000"
                        ],
                        [
                            "0.573565",
                            "51.501693",
                            "0.000000"
                        ],
                        [
                            "0.513584",
                            "51.500512",
                            "0.000000"
                        ],
                        [
                            "0.442258",
                            "51.456585",
                            "0.000000"
                        ],
                        [
                            "0.331748",
                            "51.454375",
                            "0.000000"
                        ],
                        [
                            "0.267191",
                            "51.460804",
                            "0.000000"
                        ],
                        [
                            "0.212469",
                            "51.492894",
                            "0.000000"
                        ],
                        [
                            "0.227538",
                            "51.503229",
                            "0.000000"
                        ],
                        [
                            "0.240519",
                            "51.510536",
                            "0.000000"
                        ],
                        [
                            "0.246655",
                            "51.524223",
                            "0.000000"
                        ],
                        [
                            "0.258920",
                            "51.517764",
                            "0.000000"
                        ],
                        [
                            "0.286926",
                            "51.534425",
                            "0.000000"
                        ],
                        [
                            "0.331437",
                            "51.545941",
                            "0.000000"
                        ],
                        [
                            "0.315037",
                            "51.559000",
                            "0.000000"
                        ],
                        [
                            "0.287131",
                            "51.572146",
                            "0.000000"
                        ],
                        [
                            "0.271289",
                            "51.589019",
                            "0.000000"
                        ],
                        [
                            "0.254746",
                            "51.602756",
                            "0.000000"
                        ],
                        [
                            "0.264554",
                            "51.608322",
                            "0.000000"
                        ],
                        [
                            "0.219050",
                            "51.629461",
                            "0.000000"
                        ],
                        [
                            "0.180951",
                            "51.625634",
                            "0.000000"
                        ],
                        [
                            "0.128866",
                            "51.620700",
                            "0.000000"
                        ],
                        [
                            "0.086883",
                            "51.604629",
                            "0.000000"
                        ],
                        [
                            "0.048329",
                            "51.614678",
                            "0.000000"
                        ],
                        [
                            "0.038388",
                            "51.617495",
                            "0.000000"
                        ],
                        [
                            "0.022710",
                            "51.641111",
                            "0.000000"
                        ],
                        [
                            "-0.007362",
                            "51.646158",
                            "0.000000"
                        ],
                        [
                            "-0.011097",
                            "51.668145",
                            "0.000000"
                        ],
                        [
                            "-0.011710",
                            "51.686832",
                            "0.000000"
                        ],
                        [
                            "-0.012690",
                            "51.737764",
                            "0.000000"
                        ],
                        [
                            "0.002336",
                            "51.753965",
                            "0.000000"
                        ],
                        [
                            "0.016084",
                            "51.766283",
                            "0.000000"
                        ],
                        [
                            "0.041135",
                            "51.775436",
                            "0.000000"
                        ],
                        [
                            "0.074417",
                            "51.782695",
                            "0.000000"
                        ],
                        [
                            "0.086497",
                            "51.783704",
                            "0.000000"
                        ],
                        [
                            "0.094176",
                            "51.783900",
                            "0.000000"
                        ],
                        [
                            "0.111645",
                            "51.788516",
                            "0.000000"
                        ],
                        [
                            "0.128738",
                            "51.795248",
                            "0.000000"
                        ],
                        [
                            "0.150034",
                            "51.796596",
                            "0.000000"
                        ],
                        [
                            "0.158337",
                            "51.813440",
                            "0.000000"
                        ],
                        [
                            "0.166140",
                            "51.822172",
                            "0.000000"
                        ],
                        [
                            "0.162681",
                            "51.832056",
                            "0.000000"
                        ],
                        [
                            "0.165401",
                            "51.850017",
                            "0.000000"
                        ],
                        [
                            "0.170212",
                            "51.855558",
                            "0.000000"
                        ],
                        [
                            "0.187163",
                            "51.864021",
                            "0.000000"
                        ],
                        [
                            "0.185685",
                            "51.876979",
                            "0.000000"
                        ],
                        [
                            "0.182297",
                            "51.890720",
                            "0.000000"
                        ],
                        [
                            "0.155809",
                            "51.889625",
                            "0.000000"
                        ],
                        [
                            "0.124717",
                            "51.891648",
                            "0.000000"
                        ],
                        [
                            "0.122906",
                            "51.917659",
                            "0.000000"
                        ],
                        [
                            "0.119573",
                            "51.932413",
                            "0.000000"
                        ],
                        [
                            "0.114933",
                            "51.954078",
                            "0.000000"
                        ],
                        [
                            "0.101701",
                            "51.975797",
                            "0.000000"
                        ],
                        [
                            "0.069391",
                            "51.983059",
                            "0.000000"
                        ],
                        [
                            "0.074946",
                            "52.007456",
                            "0.000000"
                        ],
                        [
                            "0.096058",
                            "52.034248",
                            "0.000000"
                        ],
                        [
                            "0.118463",
                            "52.060068",
                            "0.000000"
                        ],
                        [
                            "0.157101",
                            "52.051471",
                            "0.000000"
                        ],
                        [
                            "0.186412",
                            "52.056722",
                            "0.000000"
                        ],
                        [
                            "0.223610",
                            "52.089342",
                            "0.000000"
                        ]
                    ]
                ]
            },
            "properties": {
                "stroke-width": 0,
                "fill": "4dedf7",
                "fill-opacity": 0.8
            }
        }
    ]
}