{
    "type": "FeatureCollection",
    "features": [
        {
            "type": "Feature",
            "geometry": {
                "type": "Polygon",
                "coordinates": [
                    [
                        [
                            "0.109071",
                            "53.570344",
                            "0.000000"
                        ],
                        [
                            "-0.017045",
                            "53.514605",
                            "0.000000"
                        ],
                        [
                            "-0.066575",
                            "53.516675",
                            "0.000000"
                        ],
                        [
                            "-0.107247",
                            "53.469678",
                            "0.000000"
                        ],
                        [
                            "-0.128343",
                            "53.435398",
                            "0.000000"
                        ],
                        [
                            "-0.157325",
                            "53.461471",
                            "0.000000"
                        ],
                        [
                            "-0.182303",
                            "53.476237",
                            "0.000000"
                        ],
                        [
                            "-0.210501",
                            "53.486552",
                            "0.000000"
                        ],
                        [
                            "-0.211453",
                            "53.531067",
                            "0.000000"
                        ],
                        [
                            "-0.218955",
                            "53.568037",
                            "0.000000"
                        ],
                        [
                            "-0.236337",
                            "53.585825",
                            "0.000000"
                        ],
                        [
                            "-0.250932",
                            "53.593681",
                            "0.000000"
                        ],
                        [
                            "-0.286505",
                            "53.610827",
                            "0.000000"
                        ],
                        [
                            "-0.299986",
                            "53.595107",
                            "0.000000"
                        ],
                        [
                            "-0.355147",
                            "53.556054",
                            "0.000000"
                        ],
                        [
                            "-0.454643",
                            "53.560078",
                            "0.000000"
                        ],
                        [
                            "-0.492744",
                            "53.541596",
                            "0.000000"
                        ],
                        [
                            "-0.420665",
                            "53.534912",
                            "0.000000"
                        ],
                        [
                            "-0.456623",
                            "53.508773",
                            "0.000000"
                        ],
                        [
                            "-0.472555",
                            "53.476704",
                            "0.000000"
                        ],
                        [
                            "-0.635056",
                            "53.468962",
                            "0.000000"
                        ],
                        [
                            "-0.626774",
                            "53.501499",
                            "0.000000"
                        ],
                        [
                            "-0.739284",
                            "53.519459",
                            "0.000000"
                        ],
                        [
                            "-0.770308",
                            "53.484634",
                            "0.000000"
                        ],
                        [
                            "-0.873079",
                            "53.461017",
                            "0.000000"
                        ],
                        [
                            "-0.944852",
                            "53.530889",
                            "0.000000"
                        ],
                        [
                            "-0.901524",
                            "53.553780",
                            "0.000000"
                        ],
                        [
                            "-0.885616",
                            "53.613411",
                            "0.000000"
                        ],
                        [
                            "-1.033006",
                            "53.654693",
                            "0.000000"
                        ],
                        [
                            "-1.079031",
                            "53.660449",
                            "0.000000"
                        ],
                        [
                            "-1.084719",
                            "53.684313",
                            "0.000000"
                        ],
                        [
                            "-1.050954",
                            "53.697713",
                            "0.000000"
                        ],
                        [
                            "-1.006017",
                            "53.695641",
                            "0.000000"
                        ],
                        [
                            "-0.966723",
                            "53.704477",
                            "0.000000"
                        ],
                        [
                            "-0.957168",
                            "53.715630",
                            "0.000000"
                        ],
                        [
                            "-0.906882",
                            "53.726418",
                            "0.000000"
                        ],
                        [
                            "-0.962587",
                            "53.741745",
                            "0.000000"
                        ],
                        [
                            "-0.930205",
                            "53.763034",
                            "0.000000"
                        ],
                        [
                            "-0.930653",
                            "53.797644",
                            "0.000000"
                        ],
                        [
                            "-0.930069",
                            "53.820560",
                            "0.000000"
                        ],
                        [
                            "-0.946780",
                            "53.850820",
                            "0.000000"
                        ],
                        [
                            "-0.927674",
                            "53.877168",
                            "0.000000"
                        ],
                        [
                            "-0.940999",
                            "53.891668",
                            "0.000000"
                        ],
                        [
                            "-0.934483",
                            "53.914531",
                            "0.000000"
                        ],
                        [
                            "-0.928634",
                            "53.928861",
                            "0.000000"
                        ],
                        [
                            "-0.927715",
                            "53.946919",
                            "0.000000"
                        ],
                        [
                            "-0.934323",
                            "53.967112",
                            "0.000000"
                        ],
                        [
                            "-0.926853",
                            "53.990865",
                            "0.000000"
                        ],
                        [
                            "-0.893042",
                            "54.000446",
                            "0.000000"
                        ],
                        [
                            "-0.867411",
                            "54.017286",
                            "0.000000"
                        ],
                        [
                            "-0.798310",
                            "54.025154",
                            "0.000000"
                        ],
                        [
                            "-0.717077",
                            "54.010832",
                            "0.000000"
                        ],
                        [
                            "-0.678682",
                            "54.018505",
                            "0.000000"
                        ],
                        [
                            "-0.671935",
                            "54.038656",
                            "0.000000"
                        ],
                        [
                            "-0.645237",
                            "54.055436",
                            "0.000000"
                        ],
                        [
                            "-0.566673",
                            "54.090930",
                            "0.000000"
                        ],
                        [
                            "-0.493717",
                            "54.099926",
                            "0.000000"
                        ],
                        [
                            "-0.427112",
                            "54.137277",
                            "0.000000"
                        ],
                        [
                            "-0.410332",
                            "54.175708",
                            "0.000000"
                        ],
                        [
                            "-0.350842",
                            "54.149739",
                            "0.000000"
                        ],
                        [
                            "-0.302957",
                            "54.136489",
                            "0.000000"
                        ],
                        [
                            "-0.230078",
                            "54.135889",
                            "0.000000"
                        ],
                        [
                            "-0.111523",
                            "54.134087",
                            "0.000000"
                        ],
                        [
                            "-0.146640",
                            "54.101822",
                            "0.000000"
                        ],
                        [
                            "-0.166777",
                            "53.926838",
                            "0.000000"
                        ],
                        [
                            "0.127558",
                            "53.652728",
                            "0.000000"
                        ]
                    ]
                ]
            },
            "properties": {
                "stroke-width": 0,
                "fill": "4dedf7",
                "fill-opacity": 0.8
            }
        }
    ]
}