{
    "type": "FeatureCollection",
    "features": [
        {
            "type": "Feature",
            "geometry": {
                "type": "Polygon",
                "coordinates": [
                    [
                        [
                            "-2.459123",
                            "54.236740",
                            "0.000000"
                        ],
                        [
                            "-2.518183",
                            "54.176642",
                            "0.000000"
                        ],
                        [
                            "-2.533069",
                            "54.159821",
                            "0.000000"
                        ],
                        [
                            "-2.557027",
                            "54.153466",
                            "0.000000"
                        ],
                        [
                            "-2.561624",
                            "54.141755",
                            "0.000000"
                        ],
                        [
                            "-2.562091",
                            "54.133492",
                            "0.000000"
                        ],
                        [
                            "-2.560618",
                            "54.121711",
                            "0.000000"
                        ],
                        [
                            "-2.545351",
                            "54.114058",
                            "0.000000"
                        ],
                        [
                            "-2.536139",
                            "54.108232",
                            "0.000000"
                        ],
                        [
                            "-2.530815",
                            "54.103070",
                            "0.000000"
                        ],
                        [
                            "-2.525174",
                            "54.095976",
                            "0.000000"
                        ],
                        [
                            "-2.466442",
                            "54.057755",
                            "0.000000"
                        ],
                        [
                            "-2.390613",
                            "54.044165",
                            "0.000000"
                        ],
                        [
                            "-2.355273",
                            "54.019003",
                            "0.000000"
                        ],
                        [
                            "-2.341548",
                            "54.007750",
                            "0.000000"
                        ],
                        [
                            "-2.347149",
                            "53.992834",
                            "0.000000"
                        ],
                        [
                            "-2.321384",
                            "53.993920",
                            "0.000000"
                        ],
                        [
                            "-2.310878",
                            "53.987570",
                            "0.000000"
                        ],
                        [
                            "-2.294302",
                            "53.974423",
                            "0.000000"
                        ],
                        [
                            "-2.242912",
                            "53.980806",
                            "0.000000"
                        ],
                        [
                            "-2.234073",
                            "53.981611",
                            "0.000000"
                        ],
                        [
                            "-2.226122",
                            "53.978312",
                            "0.000000"
                        ],
                        [
                            "-2.227278",
                            "53.967410",
                            "0.000000"
                        ],
                        [
                            "-2.207076",
                            "53.965136",
                            "0.000000"
                        ],
                        [
                            "-2.184705",
                            "53.952495",
                            "0.000000"
                        ],
                        [
                            "-2.185413",
                            "53.940003",
                            "0.000000"
                        ],
                        [
                            "-2.158038",
                            "53.928208",
                            "0.000000"
                        ],
                        [
                            "-2.131329",
                            "53.924861",
                            "0.000000"
                        ],
                        [
                            "-2.110452",
                            "53.901119",
                            "0.000000"
                        ],
                        [
                            "-2.089190",
                            "53.868155",
                            "0.000000"
                        ],
                        [
                            "-2.074888",
                            "53.862470",
                            "0.000000"
                        ],
                        [
                            "-2.045058",
                            "53.838885",
                            "0.000000"
                        ],
                        [
                            "-2.127995",
                            "53.797604",
                            "0.000000"
                        ],
                        [
                            "-2.130972",
                            "53.784605",
                            "0.000000"
                        ],
                        [
                            "-2.135653",
                            "53.748495",
                            "0.000000"
                        ],
                        [
                            "-2.144162",
                            "53.739068",
                            "0.000000"
                        ],
                        [
                            "-2.158257",
                            "53.733099",
                            "0.000000"
                        ],
                        [
                            "-2.171252",
                            "53.721008",
                            "0.000000"
                        ],
                        [
                            "-2.148318",
                            "53.676379",
                            "0.000000"
                        ],
                        [
                            "-2.180910",
                            "53.641419",
                            "0.000000"
                        ],
                        [
                            "-2.193443",
                            "53.649893",
                            "0.000000"
                        ],
                        [
                            "-2.223624",
                            "53.669843",
                            "0.000000"
                        ],
                        [
                            "-2.266599",
                            "53.649654",
                            "0.000000"
                        ],
                        [
                            "-2.263954",
                            "53.630731",
                            "0.000000"
                        ],
                        [
                            "-2.271837",
                            "53.614567",
                            "0.000000"
                        ],
                        [
                            "-2.293726",
                            "53.639248",
                            "0.000000"
                        ],
                        [
                            "-2.297288",
                            "53.665370",
                            "0.000000"
                        ],
                        [
                            "-2.310183",
                            "53.660304",
                            "0.000000"
                        ],
                        [
                            "-2.364205",
                            "53.665593",
                            "0.000000"
                        ],
                        [
                            "-2.368796",
                            "53.637528",
                            "0.000000"
                        ],
                        [
                            "-2.384877",
                            "53.631715",
                            "0.000000"
                        ],
                        [
                            "-2.426020",
                            "53.629856",
                            "0.000000"
                        ],
                        [
                            "-2.449347",
                            "53.634632",
                            "0.000000"
                        ],
                        [
                            "-2.455112",
                            "53.624053",
                            "0.000000"
                        ],
                        [
                            "-2.476098",
                            "53.616728",
                            "0.000000"
                        ],
                        [
                            "-2.535572",
                            "53.613621",
                            "0.000000"
                        ],
                        [
                            "-2.546108",
                            "53.608951",
                            "0.000000"
                        ],
                        [
                            "-2.556600",
                            "53.603646",
                            "0.000000"
                        ],
                        [
                            "-2.575400",
                            "53.595454",
                            "0.000000"
                        ],
                        [
                            "-2.579492",
                            "53.598991",
                            "0.000000"
                        ],
                        [
                            "-2.583050",
                            "53.604066",
                            "0.000000"
                        ],
                        [
                            "-2.588693",
                            "53.608448",
                            "0.000000"
                        ],
                        [
                            "-2.611758",
                            "53.604579",
                            "0.000000"
                        ],
                        [
                            "-2.619665",
                            "53.594622",
                            "0.000000"
                        ],
                        [
                            "-2.631796",
                            "53.603294",
                            "0.000000"
                        ],
                        [
                            "-2.644725",
                            "53.607340",
                            "0.000000"
                        ],
                        [
                            "-2.666859",
                            "53.603601",
                            "0.000000"
                        ],
                        [
                            "-2.680904",
                            "53.604046",
                            "0.000000"
                        ],
                        [
                            "-2.693673",
                            "53.590647",
                            "0.000000"
                        ],
                        [
                            "-2.697010",
                            "53.590451",
                            "0.000000"
                        ],
                        [
                            "-2.702496",
                            "53.589653",
                            "0.000000"
                        ],
                        [
                            "-2.702709",
                            "53.587291",
                            "0.000000"
                        ],
                        [
                            "-2.714602",
                            "53.581253",
                            "0.000000"
                        ],
                        [
                            "-2.715663",
                            "53.570783",
                            "0.000000"
                        ],
                        [
                            "-2.705282",
                            "53.560847",
                            "0.000000"
                        ],
                        [
                            "-2.710464",
                            "53.550551",
                            "0.000000"
                        ],
                        [
                            "-2.716208",
                            "53.540608",
                            "0.000000"
                        ],
                        [
                            "-2.724862",
                            "53.524395",
                            "0.000000"
                        ],
                        [
                            "-2.756028",
                            "53.514602",
                            "0.000000"
                        ],
                        [
                            "-2.784036",
                            "53.530204",
                            "0.000000"
                        ],
                        [
                            "-2.806562",
                            "53.518168",
                            "0.000000"
                        ],
                        [
                            "-2.821434",
                            "53.493290",
                            "0.000000"
                        ],
                        [
                            "-2.873212",
                            "53.499465",
                            "0.000000"
                        ],
                        [
                            "-2.889267",
                            "53.506281",
                            "0.000000"
                        ],
                        [
                            "-2.890344",
                            "53.521946",
                            "0.000000"
                        ],
                        [
                            "-2.899443",
                            "53.522008",
                            "0.000000"
                        ],
                        [
                            "-2.912608",
                            "53.523529",
                            "0.000000"
                        ],
                        [
                            "-2.924631",
                            "53.526155",
                            "0.000000"
                        ],
                        [
                            "-2.936056",
                            "53.537060",
                            "0.000000"
                        ],
                        [
                            "-2.954002",
                            "53.545563",
                            "0.000000"
                        ],
                        [
                            "-2.963481",
                            "53.546897",
                            "0.000000"
                        ],
                        [
                            "-2.970186",
                            "53.547080",
                            "0.000000"
                        ],
                        [
                            "-2.975919",
                            "53.546777",
                            "0.000000"
                        ],
                        [
                            "-2.969406",
                            "53.531947",
                            "0.000000"
                        ],
                        [
                            "-2.976061",
                            "53.515291",
                            "0.000000"
                        ],
                        [
                            "-2.996360",
                            "53.525225",
                            "0.000000"
                        ],
                        [
                            "-3.013766",
                            "53.532983",
                            "0.000000"
                        ],
                        [
                            "-3.027301",
                            "53.538054",
                            "0.000000"
                        ],
                        [
                            "-3.040221",
                            "53.541564",
                            "0.000000"
                        ],
                        [
                            "-3.040130",
                            "53.556319",
                            "0.000000"
                        ],
                        [
                            "-3.021569",
                            "53.574005",
                            "0.000000"
                        ],
                        [
                            "-3.032265",
                            "53.591888",
                            "0.000000"
                        ],
                        [
                            "-3.028066",
                            "53.603072",
                            "0.000000"
                        ],
                        [
                            "-3.011727",
                            "53.613097",
                            "0.000000"
                        ],
                        [
                            "-3.001816",
                            "53.623053",
                            "0.000000"
                        ],
                        [
                            "-2.953726",
                            "53.648031",
                            "0.000000"
                        ],
                        [
                            "-2.973514",
                            "53.703636",
                            "0.000000"
                        ],
                        [
                            "-3.062202",
                            "53.691226",
                            "0.000000"
                        ],
                        [
                            "-3.069228",
                            "53.695695",
                            "0.000000"
                        ],
                        [
                            "-3.077063",
                            "53.695502",
                            "0.000000"
                        ],
                        [
                            "-3.084289",
                            "53.696653",
                            "0.000000"
                        ],
                        [
                            "-3.079473",
                            "53.702565",
                            "0.000000"
                        ],
                        [
                            "-3.076316",
                            "53.722062",
                            "0.000000"
                        ],
                        [
                            "-3.072893",
                            "53.742701",
                            "0.000000"
                        ],
                        [
                            "-3.069829",
                            "53.757342",
                            "0.000000"
                        ],
                        [
                            "-3.063426",
                            "53.842854",
                            "0.000000"
                        ],
                        [
                            "-3.056333",
                            "53.867372",
                            "0.000000"
                        ],
                        [
                            "-3.053812",
                            "53.883413",
                            "0.000000"
                        ],
                        [
                            "-3.053748",
                            "53.949436",
                            "0.000000"
                        ],
                        [
                            "-3.022014",
                            "53.949397",
                            "0.000000"
                        ],
                        [
                            "-3.016045",
                            "53.954141",
                            "0.000000"
                        ],
                        [
                            "-2.988505",
                            "53.969593",
                            "0.000000"
                        ],
                        [
                            "-2.979201",
                            "53.986775",
                            "0.000000"
                        ],
                        [
                            "-2.942491",
                            "54.010309",
                            "0.000000"
                        ],
                        [
                            "-2.923798",
                            "54.031918",
                            "0.000000"
                        ],
                        [
                            "-2.924128",
                            "54.037827",
                            "0.000000"
                        ],
                        [
                            "-2.906991",
                            "54.055529",
                            "0.000000"
                        ],
                        [
                            "-2.917028",
                            "54.057346",
                            "0.000000"
                        ],
                        [
                            "-2.905780",
                            "54.067840",
                            "0.000000"
                        ],
                        [
                            "-2.896880",
                            "54.071819",
                            "0.000000"
                        ],
                        [
                            "-2.872916",
                            "54.075885",
                            "0.000000"
                        ],
                        [
                            "-2.863910",
                            "54.078283",
                            "0.000000"
                        ],
                        [
                            "-2.890406",
                            "54.090967",
                            "0.000000"
                        ],
                        [
                            "-2.890750",
                            "54.152315",
                            "0.000000"
                        ],
                        [
                            "-2.819178",
                            "54.180831",
                            "0.000000"
                        ],
                        [
                            "-2.804044",
                            "54.195684",
                            "0.000000"
                        ],
                        [
                            "-2.784992",
                            "54.192101",
                            "0.000000"
                        ],
                        [
                            "-2.754349",
                            "54.187657",
                            "0.000000"
                        ],
                        [
                            "-2.736269",
                            "54.176899",
                            "0.000000"
                        ],
                        [
                            "-2.712336",
                            "54.164292",
                            "0.000000"
                        ],
                        [
                            "-2.687950",
                            "54.164641",
                            "0.000000"
                        ],
                        [
                            "-2.675334",
                            "54.170020",
                            "0.000000"
                        ],
                        [
                            "-2.665000",
                            "54.178466",
                            "0.000000"
                        ],
                        [
                            "-2.631209",
                            "54.198897",
                            "0.000000"
                        ],
                        [
                            "-2.585814",
                            "54.195914",
                            "0.000000"
                        ],
                        [
                            "-2.527173",
                            "54.211717",
                            "0.000000"
                        ],
                        [
                            "-2.517064",
                            "54.217127",
                            "0.000000"
                        ],
                        [
                            "-2.498174",
                            "54.220533",
                            "0.000000"
                        ],
                        [
                            "-2.481370",
                            "54.227566",
                            "0.000000"
                        ],
                        [
                            "-2.473684",
                            "54.233210",
                            "0.000000"
                        ]
                    ]
                ]
            },
            "properties": {
                "stroke-width": 0,
                "fill": "4dedf7",
                "fill-opacity": 0.8
            }
        }
    ]
}