{
    "type": "FeatureCollection",
    "features": [
        {
            "type": "Feature",
            "geometry": {
                "type": "Polygon",
                "coordinates": [
                    [
                        [
                            "-3.037581",
                            "53.442134",
                            "0.000000"
                        ],
                        [
                            "-3.043743",
                            "53.634427",
                            "0.000000"
                        ],
                        [
                            "-2.950091",
                            "53.680216",
                            "0.000000"
                        ],
                        [
                            "-2.944478",
                            "53.672040",
                            "0.000000"
                        ],
                        [
                            "-2.943978",
                            "53.665127",
                            "0.000000"
                        ],
                        [
                            "-2.957912",
                            "53.643379",
                            "0.000000"
                        ],
                        [
                            "-2.963959",
                            "53.635206",
                            "0.000000"
                        ],
                        [
                            "-2.989659",
                            "53.625878",
                            "0.000000"
                        ],
                        [
                            "-3.001700",
                            "53.623120",
                            "0.000000"
                        ],
                        [
                            "-3.006440",
                            "53.618205",
                            "0.000000"
                        ],
                        [
                            "-3.011433",
                            "53.614593",
                            "0.000000"
                        ],
                        [
                            "-3.016200",
                            "53.610369",
                            "0.000000"
                        ],
                        [
                            "-3.021703",
                            "53.606318",
                            "0.000000"
                        ],
                        [
                            "-3.029028",
                            "53.601667",
                            "0.000000"
                        ],
                        [
                            "-3.032096",
                            "53.597326",
                            "0.000000"
                        ],
                        [
                            "-3.031759",
                            "53.593154",
                            "0.000000"
                        ],
                        [
                            "-3.033428",
                            "53.588272",
                            "0.000000"
                        ],
                        [
                            "-3.029453",
                            "53.584680",
                            "0.000000"
                        ],
                        [
                            "-3.021509",
                            "53.575739",
                            "0.000000"
                        ],
                        [
                            "-3.040219",
                            "53.565385",
                            "0.000000"
                        ],
                        [
                            "-3.039792",
                            "53.549823",
                            "0.000000"
                        ],
                        [
                            "-3.041589",
                            "53.541605",
                            "0.000000"
                        ],
                        [
                            "-3.035265",
                            "53.539013",
                            "0.000000"
                        ],
                        [
                            "-3.025995",
                            "53.538521",
                            "0.000000"
                        ],
                        [
                            "-3.016325",
                            "53.535735",
                            "0.000000"
                        ],
                        [
                            "-3.010420",
                            "53.532114",
                            "0.000000"
                        ],
                        [
                            "-3.000966",
                            "53.527778",
                            "0.000000"
                        ],
                        [
                            "-2.992578",
                            "53.523819",
                            "0.000000"
                        ],
                        [
                            "-2.983354",
                            "53.520684",
                            "0.000000"
                        ],
                        [
                            "-2.972369",
                            "53.516057",
                            "0.000000"
                        ],
                        [
                            "-2.963997",
                            "53.519043",
                            "0.000000"
                        ],
                        [
                            "-2.963255",
                            "53.524821",
                            "0.000000"
                        ],
                        [
                            "-2.969602",
                            "53.532196",
                            "0.000000"
                        ],
                        [
                            "-2.975627",
                            "53.540021",
                            "0.000000"
                        ],
                        [
                            "-2.974904",
                            "53.547271",
                            "0.000000"
                        ],
                        [
                            "-2.968325",
                            "53.547398",
                            "0.000000"
                        ],
                        [
                            "-2.959889",
                            "53.545597",
                            "0.000000"
                        ],
                        [
                            "-2.949629",
                            "53.544240",
                            "0.000000"
                        ],
                        [
                            "-2.941791",
                            "53.540671",
                            "0.000000"
                        ],
                        [
                            "-2.937536",
                            "53.538507",
                            "0.000000"
                        ],
                        [
                            "-2.934712",
                            "53.535941",
                            "0.000000"
                        ],
                        [
                            "-2.931537",
                            "53.531579",
                            "0.000000"
                        ],
                        [
                            "-2.925787",
                            "53.527482",
                            "0.000000"
                        ],
                        [
                            "-2.917056",
                            "53.523377",
                            "0.000000"
                        ],
                        [
                            "-2.911374",
                            "53.523244",
                            "0.000000"
                        ],
                        [
                            "-2.901730",
                            "53.521604",
                            "0.000000"
                        ],
                        [
                            "-2.894726",
                            "53.521406",
                            "0.000000"
                        ],
                        [
                            "-2.886434",
                            "53.521076",
                            "0.000000"
                        ],
                        [
                            "-2.887069",
                            "53.515434",
                            "0.000000"
                        ],
                        [
                            "-2.888576",
                            "53.504864",
                            "0.000000"
                        ],
                        [
                            "-2.856662",
                            "53.492369",
                            "0.000000"
                        ],
                        [
                            "-2.823993",
                            "53.489603",
                            "0.000000"
                        ],
                        [
                            "-2.802510",
                            "53.519009",
                            "0.000000"
                        ],
                        [
                            "-2.775047",
                            "53.524254",
                            "0.000000"
                        ],
                        [
                            "-2.746595",
                            "53.516807",
                            "0.000000"
                        ],
                        [
                            "-2.719171",
                            "53.511793",
                            "0.000000"
                        ],
                        [
                            "-2.709335",
                            "53.513864",
                            "0.000000"
                        ],
                        [
                            "-2.693746",
                            "53.502121",
                            "0.000000"
                        ],
                        [
                            "-2.688090",
                            "53.501332",
                            "0.000000"
                        ],
                        [
                            "-2.681956",
                            "53.500441",
                            "0.000000"
                        ],
                        [
                            "-2.665901",
                            "53.498490",
                            "0.000000"
                        ],
                        [
                            "-2.653089",
                            "53.486563",
                            "0.000000"
                        ],
                        [
                            "-2.613479",
                            "53.481315",
                            "0.000000"
                        ],
                        [
                            "-2.616687",
                            "53.466629",
                            "0.000000"
                        ],
                        [
                            "-2.603275",
                            "53.460920",
                            "0.000000"
                        ],
                        [
                            "-2.577124",
                            "53.445776",
                            "0.000000"
                        ],
                        [
                            "-2.603566",
                            "53.442377",
                            "0.000000"
                        ],
                        [
                            "-2.619534",
                            "53.438173",
                            "0.000000"
                        ],
                        [
                            "-2.627144",
                            "53.434396",
                            "0.000000"
                        ],
                        [
                            "-2.633807",
                            "53.442392",
                            "0.000000"
                        ],
                        [
                            "-2.652770",
                            "53.448188",
                            "0.000000"
                        ],
                        [
                            "-2.669604",
                            "53.449775",
                            "0.000000"
                        ],
                        [
                            "-2.678949",
                            "53.444305",
                            "0.000000"
                        ],
                        [
                            "-2.675990",
                            "53.435441",
                            "0.000000"
                        ],
                        [
                            "-2.671964",
                            "53.414254",
                            "0.000000"
                        ],
                        [
                            "-2.697554",
                            "53.386395",
                            "0.000000"
                        ],
                        [
                            "-2.715957",
                            "53.396532",
                            "0.000000"
                        ],
                        [
                            "-2.725248",
                            "53.399722",
                            "0.000000"
                        ],
                        [
                            "-2.744782",
                            "53.396596",
                            "0.000000"
                        ],
                        [
                            "-2.753840",
                            "53.385625",
                            "0.000000"
                        ],
                        [
                            "-2.767494",
                            "53.383725",
                            "0.000000"
                        ],
                        [
                            "-2.772297",
                            "53.382823",
                            "0.000000"
                        ],
                        [
                            "-2.775565",
                            "53.380747",
                            "0.000000"
                        ],
                        [
                            "-2.790102",
                            "53.356211",
                            "0.000000"
                        ],
                        [
                            "-2.819320",
                            "53.344473",
                            "0.000000"
                        ],
                        [
                            "-2.822815",
                            "53.339207",
                            "0.000000"
                        ],
                        [
                            "-2.829316",
                            "53.333598",
                            "0.000000"
                        ],
                        [
                            "-3.009835",
                            "53.440270",
                            "0.000000"
                        ],
                        [
                            "-2.947376",
                            "53.304815",
                            "0.000000"
                        ],
                        [
                            "-2.983975",
                            "53.305202",
                            "0.000000"
                        ],
                        [
                            "-3.000720",
                            "53.303334",
                            "0.000000"
                        ],
                        [
                            "-3.021627",
                            "53.298655",
                            "0.000000"
                        ],
                        [
                            "-3.041951",
                            "53.306260",
                            "0.000000"
                        ],
                        [
                            "-3.056882",
                            "53.309515",
                            "0.000000"
                        ],
                        [
                            "-3.080084",
                            "53.313503",
                            "0.000000"
                        ],
                        [
                            "-3.089142",
                            "53.308379",
                            "0.000000"
                        ],
                        [
                            "-3.146329",
                            "53.410355",
                            "0.000000"
                        ]
                    ]
                ]
            },
            "properties": {
                "stroke-width": 0,
                "fill": "4dedf7",
                "fill-opacity": 0.8
            }
        }
    ]
}