{
    "type": "FeatureCollection",
    "features": [
        {
            "type": "Feature",
            "geometry": {
                "type": "Polygon",
                "coordinates": [
                    [
                        [
                            "-2.564724",
                            "54.127030",
                            "0.000000"
                        ],
                        [
                            "-2.562052",
                            "54.134461",
                            "0.000000"
                        ],
                        [
                            "-2.563084",
                            "54.139751",
                            "0.000000"
                        ],
                        [
                            "-2.558127",
                            "54.145597",
                            "0.000000"
                        ],
                        [
                            "-2.556111",
                            "54.153530",
                            "0.000000"
                        ],
                        [
                            "-2.538328",
                            "54.156972",
                            "0.000000"
                        ],
                        [
                            "-2.529758",
                            "54.166673",
                            "0.000000"
                        ],
                        [
                            "-2.518183",
                            "54.176642",
                            "0.000000"
                        ],
                        [
                            "-2.468663",
                            "54.219089",
                            "0.000000"
                        ],
                        [
                            "-2.442939",
                            "54.225826",
                            "0.000000"
                        ],
                        [
                            "-2.426919",
                            "54.223676",
                            "0.000000"
                        ],
                        [
                            "-2.396761",
                            "54.239374",
                            "0.000000"
                        ],
                        [
                            "-2.349670",
                            "54.239835",
                            "0.000000"
                        ],
                        [
                            "-2.322599",
                            "54.248532",
                            "0.000000"
                        ],
                        [
                            "-2.318277",
                            "54.273228",
                            "0.000000"
                        ],
                        [
                            "-2.320529",
                            "54.298270",
                            "0.000000"
                        ],
                        [
                            "-2.319842",
                            "54.311932",
                            "0.000000"
                        ],
                        [
                            "-2.311244",
                            "54.324672",
                            "0.000000"
                        ],
                        [
                            "-2.325813",
                            "54.331793",
                            "0.000000"
                        ],
                        [
                            "-2.357873",
                            "54.349524",
                            "0.000000"
                        ],
                        [
                            "-2.343818",
                            "54.360627",
                            "0.000000"
                        ],
                        [
                            "-2.327844",
                            "54.367867",
                            "0.000000"
                        ],
                        [
                            "-2.320920",
                            "54.372054",
                            "0.000000"
                        ],
                        [
                            "-2.294649",
                            "54.380714",
                            "0.000000"
                        ],
                        [
                            "-2.303869",
                            "54.396637",
                            "0.000000"
                        ],
                        [
                            "-2.305368",
                            "54.422744",
                            "0.000000"
                        ],
                        [
                            "-2.281061",
                            "54.438860",
                            "0.000000"
                        ],
                        [
                            "-2.265552",
                            "54.447811",
                            "0.000000"
                        ],
                        [
                            "-2.254119",
                            "54.450438",
                            "0.000000"
                        ],
                        [
                            "-2.240986",
                            "54.449912",
                            "0.000000"
                        ],
                        [
                            "-2.198383",
                            "54.448568",
                            "0.000000"
                        ],
                        [
                            "-2.156182",
                            "54.456654",
                            "0.000000"
                        ],
                        [
                            "-2.120572",
                            "54.461699",
                            "0.000000"
                        ],
                        [
                            "-2.049519",
                            "54.481761",
                            "0.000000"
                        ],
                        [
                            "-1.986341",
                            "54.461420",
                            "0.000000"
                        ],
                        [
                            "-1.965218",
                            "54.451992",
                            "0.000000"
                        ],
                        [
                            "-1.955985",
                            "54.453571",
                            "0.000000"
                        ],
                        [
                            "-1.945461",
                            "54.453949",
                            "0.000000"
                        ],
                        [
                            "-1.858819",
                            "54.483069",
                            "0.000000"
                        ],
                        [
                            "-1.853058",
                            "54.503920",
                            "0.000000"
                        ],
                        [
                            "-1.833390",
                            "54.505640",
                            "0.000000"
                        ],
                        [
                            "-1.819373",
                            "54.494052",
                            "0.000000"
                        ],
                        [
                            "-1.789751",
                            "54.493639",
                            "0.000000"
                        ],
                        [
                            "-1.778070",
                            "54.506455",
                            "0.000000"
                        ],
                        [
                            "-1.770465",
                            "54.532874",
                            "0.000000"
                        ],
                        [
                            "-1.743109",
                            "54.529754",
                            "0.000000"
                        ],
                        [
                            "-1.726922",
                            "54.531875",
                            "0.000000"
                        ],
                        [
                            "-1.718329",
                            "54.541269",
                            "0.000000"
                        ],
                        [
                            "-1.674540",
                            "54.535128",
                            "0.000000"
                        ],
                        [
                            "-1.655389",
                            "54.524999",
                            "0.000000"
                        ],
                        [
                            "-1.634661",
                            "54.517635",
                            "0.000000"
                        ],
                        [
                            "-1.617622",
                            "54.517256",
                            "0.000000"
                        ],
                        [
                            "-1.601150",
                            "54.514629",
                            "0.000000"
                        ],
                        [
                            "-1.584134",
                            "54.513006",
                            "0.000000"
                        ],
                        [
                            "-1.590431",
                            "54.506106",
                            "0.000000"
                        ],
                        [
                            "-1.578789",
                            "54.503730",
                            "0.000000"
                        ],
                        [
                            "-1.574199",
                            "54.491156",
                            "0.000000"
                        ],
                        [
                            "-1.554327",
                            "54.483089",
                            "0.000000"
                        ],
                        [
                            "-1.540680",
                            "54.470628",
                            "0.000000"
                        ],
                        [
                            "-1.520793",
                            "54.473556",
                            "0.000000"
                        ],
                        [
                            "-1.529463",
                            "54.484569",
                            "0.000000"
                        ],
                        [
                            "-1.512110",
                            "54.480249",
                            "0.000000"
                        ],
                        [
                            "-1.506206",
                            "54.481559",
                            "0.000000"
                        ],
                        [
                            "-1.493214",
                            "54.481414",
                            "0.000000"
                        ],
                        [
                            "-1.483769",
                            "54.473460",
                            "0.000000"
                        ],
                        [
                            "-1.467674",
                            "54.462411",
                            "0.000000"
                        ],
                        [
                            "-1.462353",
                            "54.451235",
                            "0.000000"
                        ],
                        [
                            "-1.462531",
                            "54.460502",
                            "0.000000"
                        ],
                        [
                            "-1.459552",
                            "54.468937",
                            "0.000000"
                        ],
                        [
                            "-1.458816",
                            "54.482908",
                            "0.000000"
                        ],
                        [
                            "-1.467041",
                            "54.496530",
                            "0.000000"
                        ],
                        [
                            "-1.463643",
                            "54.503905",
                            "0.000000"
                        ],
                        [
                            "-1.443212",
                            "54.491213",
                            "0.000000"
                        ],
                        [
                            "-1.430110",
                            "54.482093",
                            "0.000000"
                        ],
                        [
                            "-1.413637",
                            "54.477116",
                            "0.000000"
                        ],
                        [
                            "-1.406075",
                            "54.493940",
                            "0.000000"
                        ],
                        [
                            "-1.389257",
                            "54.486698",
                            "0.000000"
                        ],
                        [
                            "-1.377766",
                            "54.491407",
                            "0.000000"
                        ],
                        [
                            "-1.374335",
                            "54.484044",
                            "0.000000"
                        ],
                        [
                            "-1.361797",
                            "54.467800",
                            "0.000000"
                        ],
                        [
                            "-1.346669",
                            "54.472635",
                            "0.000000"
                        ],
                        [
                            "-1.343725",
                            "54.468222",
                            "0.000000"
                        ],
                        [
                            "-1.344374",
                            "54.466000",
                            "0.000000"
                        ],
                        [
                            "-1.323853",
                            "54.471274",
                            "0.000000"
                        ],
                        [
                            "-1.308183",
                            "54.477002",
                            "0.000000"
                        ],
                        [
                            "-1.302993",
                            "54.475846",
                            "0.000000"
                        ],
                        [
                            "-1.293200",
                            "54.480570",
                            "0.000000"
                        ],
                        [
                            "-1.287671",
                            "54.484830",
                            "0.000000"
                        ],
                        [
                            "-1.285469",
                            "54.487816",
                            "0.000000"
                        ],
                        [
                            "-1.275474",
                            "54.490885",
                            "0.000000"
                        ],
                        [
                            "-1.267394",
                            "54.488249",
                            "0.000000"
                        ],
                        [
                            "-1.256886",
                            "54.492304",
                            "0.000000"
                        ],
                        [
                            "-1.255796",
                            "54.500242",
                            "0.000000"
                        ],
                        [
                            "-1.246037",
                            "54.502179",
                            "0.000000"
                        ],
                        [
                            "-1.232664",
                            "54.510821",
                            "0.000000"
                        ],
                        [
                            "-1.214719",
                            "54.510052",
                            "0.000000"
                        ],
                        [
                            "-1.193753",
                            "54.506532",
                            "0.000000"
                        ],
                        [
                            "-1.176115",
                            "54.504303",
                            "0.000000"
                        ],
                        [
                            "-1.173588",
                            "54.502515",
                            "0.000000"
                        ],
                        [
                            "-1.167207",
                            "54.503403",
                            "0.000000"
                        ],
                        [
                            "-1.159867",
                            "54.502814",
                            "0.000000"
                        ],
                        [
                            "-1.146634",
                            "54.501394",
                            "0.000000"
                        ],
                        [
                            "-1.122200",
                            "54.498735",
                            "0.000000"
                        ],
                        [
                            "-1.110451",
                            "54.504627",
                            "0.000000"
                        ],
                        [
                            "-1.085613",
                            "54.503433",
                            "0.000000"
                        ],
                        [
                            "-1.054137",
                            "54.497659",
                            "0.000000"
                        ],
                        [
                            "-1.042878",
                            "54.495490",
                            "0.000000"
                        ],
                        [
                            "-0.987356",
                            "54.500847",
                            "0.000000"
                        ],
                        [
                            "-0.928508",
                            "54.491565",
                            "0.000000"
                        ],
                        [
                            "-0.876305",
                            "54.495377",
                            "0.000000"
                        ],
                        [
                            "-0.850880",
                            "54.512734",
                            "0.000000"
                        ],
                        [
                            "-0.850052",
                            "54.519526",
                            "0.000000"
                        ],
                        [
                            "-0.849932",
                            "54.527392",
                            "0.000000"
                        ],
                        [
                            "-0.844454",
                            "54.533729",
                            "0.000000"
                        ],
                        [
                            "-0.836803",
                            "54.541974",
                            "0.000000"
                        ],
                        [
                            "-0.828649",
                            "54.547264",
                            "0.000000"
                        ],
                        [
                            "-0.817814",
                            "54.551211",
                            "0.000000"
                        ],
                        [
                            "-0.808088",
                            "54.551228",
                            "0.000000"
                        ],
                        [
                            "-0.797767",
                            "54.553647",
                            "0.000000"
                        ],
                        [
                            "-0.794162",
                            "54.557577",
                            "0.000000"
                        ],
                        [
                            "-0.788832",
                            "54.559814",
                            "0.000000"
                        ],
                        [
                            "-0.785365",
                            "54.560902",
                            "0.000000"
                        ],
                        [
                            "-0.780405",
                            "54.561370",
                            "0.000000"
                        ],
                        [
                            "-0.777165",
                            "54.559542",
                            "0.000000"
                        ],
                        [
                            "-0.773619",
                            "54.557737",
                            "0.000000"
                        ],
                        [
                            "-0.772572",
                            "54.555274",
                            "0.000000"
                        ],
                        [
                            "-0.767897",
                            "54.552909",
                            "0.000000"
                        ],
                        [
                            "-0.764784",
                            "54.548351",
                            "0.000000"
                        ],
                        [
                            "-0.762132",
                            "54.546001",
                            "0.000000"
                        ],
                        [
                            "-0.755768",
                            "54.545041",
                            "0.000000"
                        ],
                        [
                            "-0.747477",
                            "54.539778",
                            "0.000000"
                        ],
                        [
                            "-0.744369",
                            "54.536881",
                            "0.000000"
                        ],
                        [
                            "-0.744694",
                            "54.529107",
                            "0.000000"
                        ],
                        [
                            "-0.737175",
                            "54.529350",
                            "0.000000"
                        ],
                        [
                            "-0.723488",
                            "54.531327",
                            "0.000000"
                        ],
                        [
                            "-0.718366",
                            "54.532022",
                            "0.000000"
                        ],
                        [
                            "-0.718650",
                            "54.535884",
                            "0.000000"
                        ],
                        [
                            "-0.713392",
                            "54.535524",
                            "0.000000"
                        ],
                        [
                            "-0.707709",
                            "54.534629",
                            "0.000000"
                        ],
                        [
                            "-0.704372",
                            "54.530155",
                            "0.000000"
                        ],
                        [
                            "-0.701992",
                            "54.526963",
                            "0.000000"
                        ],
                        [
                            "-0.696842",
                            "54.524349",
                            "0.000000"
                        ],
                        [
                            "-0.692806",
                            "54.521605",
                            "0.000000"
                        ],
                        [
                            "-0.685377",
                            "54.520958",
                            "0.000000"
                        ],
                        [
                            "-0.676519",
                            "54.516969",
                            "0.000000"
                        ],
                        [
                            "-0.674010",
                            "54.512911",
                            "0.000000"
                        ],
                        [
                            "-0.672604",
                            "54.508791",
                            "0.000000"
                        ],
                        [
                            "-0.666940",
                            "54.502697",
                            "0.000000"
                        ],
                        [
                            "-0.655010",
                            "54.498732",
                            "0.000000"
                        ],
                        [
                            "-0.641274",
                            "54.496772",
                            "0.000000"
                        ],
                        [
                            "-0.623816",
                            "54.492953",
                            "0.000000"
                        ],
                        [
                            "-0.612772",
                            "54.493121",
                            "0.000000"
                        ],
                        [
                            "-0.610337",
                            "54.491809",
                            "0.000000"
                        ],
                        [
                            "-0.605473",
                            "54.491422",
                            "0.000000"
                        ],
                        [
                            "-0.601375",
                            "54.490164",
                            "0.000000"
                        ],
                        [
                            "-0.596557",
                            "54.489942",
                            "0.000000"
                        ],
                        [
                            "-0.590473",
                            "54.489733",
                            "0.000000"
                        ],
                        [
                            "-0.583124",
                            "54.487008",
                            "0.000000"
                        ],
                        [
                            "-0.584949",
                            "54.485449",
                            "0.000000"
                        ],
                        [
                            "-0.578821",
                            "54.484847",
                            "0.000000"
                        ],
                        [
                            "-0.570119",
                            "54.480893",
                            "0.000000"
                        ],
                        [
                            "-0.563053",
                            "54.474847",
                            "0.000000"
                        ],
                        [
                            "-0.558459",
                            "54.468500",
                            "0.000000"
                        ],
                        [
                            "-0.552612",
                            "54.463350",
                            "0.000000"
                        ],
                        [
                            "-0.543508",
                            "54.461206",
                            "0.000000"
                        ],
                        [
                            "-0.537942",
                            "54.456558",
                            "0.000000"
                        ],
                        [
                            "-0.533570",
                            "54.456144",
                            "0.000000"
                        ],
                        [
                            "-0.531328",
                            "54.452738",
                            "0.000000"
                        ],
                        [
                            "-0.527919",
                            "54.451827",
                            "0.000000"
                        ],
                        [
                            "-0.524045",
                            "54.449856",
                            "0.000000"
                        ],
                        [
                            "-0.520387",
                            "54.446951",
                            "0.000000"
                        ],
                        [
                            "-0.519941",
                            "54.441852",
                            "0.000000"
                        ],
                        [
                            "-0.525597",
                            "54.437615",
                            "0.000000"
                        ],
                        [
                            "-0.528631",
                            "54.434410",
                            "0.000000"
                        ],
                        [
                            "-0.527270",
                            "54.431290",
                            "0.000000"
                        ],
                        [
                            "-0.525635",
                            "54.430154",
                            "0.000000"
                        ],
                        [
                            "-0.528650",
                            "54.425286",
                            "0.000000"
                        ],
                        [
                            "-0.524406",
                            "54.423617",
                            "0.000000"
                        ],
                        [
                            "-0.522928",
                            "54.418825",
                            "0.000000"
                        ],
                        [
                            "-0.517552",
                            "54.415927",
                            "0.000000"
                        ],
                        [
                            "-0.513151",
                            "54.414566",
                            "0.000000"
                        ],
                        [
                            "-0.503497",
                            "54.411188",
                            "0.000000"
                        ],
                        [
                            "-0.504351",
                            "54.409029",
                            "0.000000"
                        ],
                        [
                            "-0.496512",
                            "54.408456",
                            "0.000000"
                        ],
                        [
                            "-0.491053",
                            "54.410586",
                            "0.000000"
                        ],
                        [
                            "-0.488570",
                            "54.407007",
                            "0.000000"
                        ],
                        [
                            "-0.478076",
                            "54.399728",
                            "0.000000"
                        ],
                        [
                            "-0.466705",
                            "54.392134",
                            "0.000000"
                        ],
                        [
                            "-0.453903",
                            "54.376797",
                            "0.000000"
                        ],
                        [
                            "-0.446819",
                            "54.368680",
                            "0.000000"
                        ],
                        [
                            "-0.445261",
                            "54.364166",
                            "0.000000"
                        ],
                        [
                            "-0.444614",
                            "54.358192",
                            "0.000000"
                        ],
                        [
                            "-0.435387",
                            "54.353055",
                            "0.000000"
                        ],
                        [
                            "-0.430098",
                            "54.344504",
                            "0.000000"
                        ],
                        [
                            "-0.431947",
                            "54.340803",
                            "0.000000"
                        ],
                        [
                            "-0.424805",
                            "54.340201",
                            "0.000000"
                        ],
                        [
                            "-0.420904",
                            "54.337694",
                            "0.000000"
                        ],
                        [
                            "-0.419917",
                            "54.334079",
                            "0.000000"
                        ],
                        [
                            "-0.416826",
                            "54.329715",
                            "0.000000"
                        ],
                        [
                            "-0.419096",
                            "54.325047",
                            "0.000000"
                        ],
                        [
                            "-0.415395",
                            "54.322134",
                            "0.000000"
                        ],
                        [
                            "-0.416091",
                            "54.319053",
                            "0.000000"
                        ],
                        [
                            "-0.415275",
                            "54.316978",
                            "0.000000"
                        ],
                        [
                            "-0.415706",
                            "54.314793",
                            "0.000000"
                        ],
                        [
                            "-0.416776",
                            "54.314050",
                            "0.000000"
                        ],
                        [
                            "-0.415232",
                            "54.311406",
                            "0.000000"
                        ],
                        [
                            "-0.412724",
                            "54.307830",
                            "0.000000"
                        ],
                        [
                            "-0.408681",
                            "54.307136",
                            "0.000000"
                        ],
                        [
                            "-0.406177",
                            "54.306423",
                            "0.000000"
                        ],
                        [
                            "-0.404350",
                            "54.303346",
                            "0.000000"
                        ],
                        [
                            "-0.406323",
                            "54.300656",
                            "0.000000"
                        ],
                        [
                            "-0.408425",
                            "54.298619",
                            "0.000000"
                        ],
                        [
                            "-0.407007",
                            "54.295130",
                            "0.000000"
                        ],
                        [
                            "-0.405246",
                            "54.294244",
                            "0.000000"
                        ],
                        [
                            "-0.397384",
                            "54.289565",
                            "0.000000"
                        ],
                        [
                            "-0.384801",
                            "54.288431",
                            "0.000000"
                        ],
                        [
                            "-0.385960",
                            "54.282929",
                            "0.000000"
                        ],
                        [
                            "-0.394244",
                            "54.277786",
                            "0.000000"
                        ],
                        [
                            "-0.391282",
                            "54.273188",
                            "0.000000"
                        ],
                        [
                            "-0.387093",
                            "54.268890",
                            "0.000000"
                        ],
                        [
                            "-0.378899",
                            "54.265445",
                            "0.000000"
                        ],
                        [
                            "-0.375521",
                            "54.263961",
                            "0.000000"
                        ],
                        [
                            "-0.372146",
                            "54.260764",
                            "0.000000"
                        ],
                        [
                            "-0.367011",
                            "54.257112",
                            "0.000000"
                        ],
                        [
                            "-0.366856",
                            "54.254750",
                            "0.000000"
                        ],
                        [
                            "-0.367962",
                            "54.254384",
                            "0.000000"
                        ],
                        [
                            "-0.367270",
                            "54.250615",
                            "0.000000"
                        ],
                        [
                            "-0.361341",
                            "54.245615",
                            "0.000000"
                        ],
                        [
                            "-0.344928",
                            "54.242598",
                            "0.000000"
                        ],
                        [
                            "-0.339050",
                            "54.243774",
                            "0.000000"
                        ],
                        [
                            "-0.330145",
                            "54.240304",
                            "0.000000"
                        ],
                        [
                            "-0.329903",
                            "54.238846",
                            "0.000000"
                        ],
                        [
                            "-0.320096",
                            "54.238369",
                            "0.000000"
                        ],
                        [
                            "-0.317178",
                            "54.235580",
                            "0.000000"
                        ],
                        [
                            "-0.318980",
                            "54.234610",
                            "0.000000"
                        ],
                        [
                            "-0.312101",
                            "54.231878",
                            "0.000000"
                        ],
                        [
                            "-0.310097",
                            "54.229070",
                            "0.000000"
                        ],
                        [
                            "-0.308907",
                            "54.228607",
                            "0.000000"
                        ],
                        [
                            "-0.302973",
                            "54.227711",
                            "0.000000"
                        ],
                        [
                            "-0.295204",
                            "54.225342",
                            "0.000000"
                        ],
                        [
                            "-0.287321",
                            "54.223813",
                            "0.000000"
                        ],
                        [
                            "-0.278035",
                            "54.220174",
                            "0.000000"
                        ],
                        [
                            "-0.272397",
                            "54.218725",
                            "0.000000"
                        ],
                        [
                            "-0.265730",
                            "54.217433",
                            "0.000000"
                        ],
                        [
                            "-0.258935",
                            "54.215909",
                            "0.000000"
                        ],
                        [
                            "-0.266056",
                            "54.215857",
                            "0.000000"
                        ],
                        [
                            "-0.279508",
                            "54.211681",
                            "0.000000"
                        ],
                        [
                            "-0.279210",
                            "54.196852",
                            "0.000000"
                        ],
                        [
                            "-0.259138",
                            "54.176126",
                            "0.000000"
                        ],
                        [
                            "-0.247003",
                            "54.169506",
                            "0.000000"
                        ],
                        [
                            "-0.241419",
                            "54.166880",
                            "0.000000"
                        ],
                        [
                            "-0.224352",
                            "54.160033",
                            "0.000000"
                        ],
                        [
                            "-0.219362",
                            "54.159423",
                            "0.000000"
                        ],
                        [
                            "-0.217259",
                            "54.147769",
                            "0.000000"
                        ],
                        [
                            "-0.230343",
                            "54.132840",
                            "0.000000"
                        ],
                        [
                            "-0.278591",
                            "54.139721",
                            "0.000000"
                        ],
                        [
                            "-0.308252",
                            "54.138998",
                            "0.000000"
                        ],
                        [
                            "-0.332184",
                            "54.149270",
                            "0.000000"
                        ],
                        [
                            "-0.367058",
                            "54.153350",
                            "0.000000"
                        ],
                        [
                            "-0.387053",
                            "54.174204",
                            "0.000000"
                        ],
                        [
                            "-0.418015",
                            "54.172223",
                            "0.000000"
                        ],
                        [
                            "-0.427175",
                            "54.138139",
                            "0.000000"
                        ],
                        [
                            "-0.454458",
                            "54.121521",
                            "0.000000"
                        ],
                        [
                            "-0.493984",
                            "54.099167",
                            "0.000000"
                        ],
                        [
                            "-0.522260",
                            "54.086178",
                            "0.000000"
                        ],
                        [
                            "-0.546973",
                            "54.091373",
                            "0.000000"
                        ],
                        [
                            "-0.574729",
                            "54.089506",
                            "0.000000"
                        ],
                        [
                            "-0.602118",
                            "54.079466",
                            "0.000000"
                        ],
                        [
                            "-0.631576",
                            "54.068773",
                            "0.000000"
                        ],
                        [
                            "-0.648454",
                            "54.057429",
                            "0.000000"
                        ],
                        [
                            "-0.659134",
                            "54.037913",
                            "0.000000"
                        ],
                        [
                            "-0.686273",
                            "54.031319",
                            "0.000000"
                        ],
                        [
                            "-0.681249",
                            "54.019602",
                            "0.000000"
                        ],
                        [
                            "-0.686467",
                            "54.008457",
                            "0.000000"
                        ],
                        [
                            "-0.718688",
                            "54.010342",
                            "0.000000"
                        ],
                        [
                            "-0.731001",
                            "54.023183",
                            "0.000000"
                        ],
                        [
                            "-0.757211",
                            "54.025529",
                            "0.000000"
                        ],
                        [
                            "-0.773842",
                            "54.023883",
                            "0.000000"
                        ],
                        [
                            "-0.780358",
                            "54.022988",
                            "0.000000"
                        ],
                        [
                            "-0.787826",
                            "54.021528",
                            "0.000000"
                        ],
                        [
                            "-0.794456",
                            "54.019911",
                            "0.000000"
                        ],
                        [
                            "-0.799825",
                            "54.021326",
                            "0.000000"
                        ],
                        [
                            "-0.814615",
                            "54.021812",
                            "0.000000"
                        ],
                        [
                            "-0.841500",
                            "54.021232",
                            "0.000000"
                        ],
                        [
                            "-0.858982",
                            "54.016665",
                            "0.000000"
                        ],
                        [
                            "-0.868556",
                            "54.016986",
                            "0.000000"
                        ],
                        [
                            "-0.877803",
                            "54.017043",
                            "0.000000"
                        ],
                        [
                            "-0.889082",
                            "54.008928",
                            "0.000000"
                        ],
                        [
                            "-0.899131",
                            "53.999000",
                            "0.000000"
                        ],
                        [
                            "-0.911912",
                            "53.992877",
                            "0.000000"
                        ],
                        [
                            "-0.922522",
                            "53.988991",
                            "0.000000"
                        ],
                        [
                            "-0.928694",
                            "53.976299",
                            "0.000000"
                        ],
                        [
                            "-0.927087",
                            "53.964032",
                            "0.000000"
                        ],
                        [
                            "-0.926387",
                            "53.950840",
                            "0.000000"
                        ],
                        [
                            "-0.925252",
                            "53.940915",
                            "0.000000"
                        ],
                        [
                            "-0.926888",
                            "53.932094",
                            "0.000000"
                        ],
                        [
                            "-0.925822",
                            "53.920920",
                            "0.000000"
                        ],
                        [
                            "-0.931675",
                            "53.913778",
                            "0.000000"
                        ],
                        [
                            "-0.938186",
                            "53.907950",
                            "0.000000"
                        ],
                        [
                            "-0.942930",
                            "53.897275",
                            "0.000000"
                        ],
                        [
                            "-0.944062",
                            "53.892060",
                            "0.000000"
                        ],
                        [
                            "-0.921880",
                            "53.890824",
                            "0.000000"
                        ],
                        [
                            "-0.924366",
                            "53.883730",
                            "0.000000"
                        ],
                        [
                            "-0.939462",
                            "53.875103",
                            "0.000000"
                        ],
                        [
                            "-0.947478",
                            "53.863402",
                            "0.000000"
                        ],
                        [
                            "-0.945030",
                            "53.847754",
                            "0.000000"
                        ],
                        [
                            "-0.940548",
                            "53.825235",
                            "0.000000"
                        ],
                        [
                            "-0.924330",
                            "53.816099",
                            "0.000000"
                        ],
                        [
                            "-0.926725",
                            "53.810673",
                            "0.000000"
                        ],
                        [
                            "-0.930714",
                            "53.798065",
                            "0.000000"
                        ],
                        [
                            "-0.934172",
                            "53.786149",
                            "0.000000"
                        ],
                        [
                            "-0.928707",
                            "53.771216",
                            "0.000000"
                        ],
                        [
                            "-0.947735",
                            "53.755210",
                            "0.000000"
                        ],
                        [
                            "-0.972740",
                            "53.749627",
                            "0.000000"
                        ],
                        [
                            "-0.960000",
                            "53.735858",
                            "0.000000"
                        ],
                        [
                            "-0.911529",
                            "53.732853",
                            "0.000000"
                        ],
                        [
                            "-0.903371",
                            "53.719834",
                            "0.000000"
                        ],
                        [
                            "-0.919689",
                            "53.718835",
                            "0.000000"
                        ],
                        [
                            "-0.951099",
                            "53.713267",
                            "0.000000"
                        ],
                        [
                            "-0.959726",
                            "53.706391",
                            "0.000000"
                        ],
                        [
                            "-0.965252",
                            "53.700445",
                            "0.000000"
                        ],
                        [
                            "-0.968981",
                            "53.706764",
                            "0.000000"
                        ],
                        [
                            "-0.981299",
                            "53.696950",
                            "0.000000"
                        ],
                        [
                            "-1.008444",
                            "53.695933",
                            "0.000000"
                        ],
                        [
                            "-1.037846",
                            "53.694113",
                            "0.000000"
                        ],
                        [
                            "-1.053673",
                            "53.696880",
                            "0.000000"
                        ],
                        [
                            "-1.065735",
                            "53.705233",
                            "0.000000"
                        ],
                        [
                            "-1.080719",
                            "53.691813",
                            "0.000000"
                        ],
                        [
                            "-1.092275",
                            "53.678938",
                            "0.000000"
                        ],
                        [
                            "-1.082834",
                            "53.662070",
                            "0.000000"
                        ],
                        [
                            "-1.068414",
                            "53.657544",
                            "0.000000"
                        ],
                        [
                            "-1.050181",
                            "53.655137",
                            "0.000000"
                        ],
                        [
                            "-1.088887",
                            "53.650425",
                            "0.000000"
                        ],
                        [
                            "-1.120169",
                            "53.646901",
                            "0.000000"
                        ],
                        [
                            "-1.127058",
                            "53.638447",
                            "0.000000"
                        ],
                        [
                            "-1.140877",
                            "53.635921",
                            "0.000000"
                        ],
                        [
                            "-1.158426",
                            "53.643450",
                            "0.000000"
                        ],
                        [
                            "-1.171829",
                            "53.639485",
                            "0.000000"
                        ],
                        [
                            "-1.197513",
                            "53.639622",
                            "0.000000"
                        ],
                        [
                            "-1.214196",
                            "53.641687",
                            "0.000000"
                        ],
                        [
                            "-1.219347",
                            "53.623476",
                            "0.000000"
                        ],
                        [
                            "-1.243208",
                            "53.634424",
                            "0.000000"
                        ],
                        [
                            "-1.253806",
                            "53.648678",
                            "0.000000"
                        ],
                        [
                            "-1.251670",
                            "53.663421",
                            "0.000000"
                        ],
                        [
                            "-1.244254",
                            "53.691813",
                            "0.000000"
                        ],
                        [
                            "-1.200236",
                            "53.701474",
                            "0.000000"
                        ],
                        [
                            "-1.224868",
                            "53.712060",
                            "0.000000"
                        ],
                        [
                            "-1.228738",
                            "53.714562",
                            "0.000000"
                        ],
                        [
                            "-1.253528",
                            "53.712791",
                            "0.000000"
                        ],
                        [
                            "-1.270837",
                            "53.722652",
                            "0.000000"
                        ],
                        [
                            "-1.284477",
                            "53.732600",
                            "0.000000"
                        ],
                        [
                            "-1.301515",
                            "53.741790",
                            "0.000000"
                        ],
                        [
                            "-1.312832",
                            "53.749419",
                            "0.000000"
                        ],
                        [
                            "-1.306563",
                            "53.755196",
                            "0.000000"
                        ],
                        [
                            "-1.295302",
                            "53.757318",
                            "0.000000"
                        ],
                        [
                            "-1.292462",
                            "53.767540",
                            "0.000000"
                        ],
                        [
                            "-1.313721",
                            "53.782105",
                            "0.000000"
                        ],
                        [
                            "-1.313797",
                            "53.803262",
                            "0.000000"
                        ],
                        [
                            "-1.306018",
                            "53.817277",
                            "0.000000"
                        ],
                        [
                            "-1.323388",
                            "53.827854",
                            "0.000000"
                        ],
                        [
                            "-1.329852",
                            "53.835593",
                            "0.000000"
                        ],
                        [
                            "-1.325706",
                            "53.835133",
                            "0.000000"
                        ],
                        [
                            "-1.340091",
                            "53.844754",
                            "0.000000"
                        ],
                        [
                            "-1.346315",
                            "53.858240",
                            "0.000000"
                        ],
                        [
                            "-1.314115",
                            "53.868255",
                            "0.000000"
                        ],
                        [
                            "-1.320718",
                            "53.884012",
                            "0.000000"
                        ],
                        [
                            "-1.321999",
                            "53.900647",
                            "0.000000"
                        ],
                        [
                            "-1.301258",
                            "53.914061",
                            "0.000000"
                        ],
                        [
                            "-1.302261",
                            "53.925535",
                            "0.000000"
                        ],
                        [
                            "-1.307366",
                            "53.932331",
                            "0.000000"
                        ],
                        [
                            "-1.323404",
                            "53.936797",
                            "0.000000"
                        ],
                        [
                            "-1.340334",
                            "53.940653",
                            "0.000000"
                        ],
                        [
                            "-1.354711",
                            "53.943683",
                            "0.000000"
                        ],
                        [
                            "-1.381575",
                            "53.940478",
                            "0.000000"
                        ],
                        [
                            "-1.397248",
                            "53.942482",
                            "0.000000"
                        ],
                        [
                            "-1.409075",
                            "53.933980",
                            "0.000000"
                        ],
                        [
                            "-1.418224",
                            "53.928102",
                            "0.000000"
                        ],
                        [
                            "-1.431649",
                            "53.918785",
                            "0.000000"
                        ],
                        [
                            "-1.442612",
                            "53.913062",
                            "0.000000"
                        ],
                        [
                            "-1.463554",
                            "53.906218",
                            "0.000000"
                        ],
                        [
                            "-1.491849",
                            "53.914447",
                            "0.000000"
                        ],
                        [
                            "-1.527129",
                            "53.909229",
                            "0.000000"
                        ],
                        [
                            "-1.551094",
                            "53.903113",
                            "0.000000"
                        ],
                        [
                            "-1.569009",
                            "53.910877",
                            "0.000000"
                        ],
                        [
                            "-1.593398",
                            "53.902163",
                            "0.000000"
                        ],
                        [
                            "-1.614679",
                            "53.905277",
                            "0.000000"
                        ],
                        [
                            "-1.638969",
                            "53.906039",
                            "0.000000"
                        ],
                        [
                            "-1.652637",
                            "53.910167",
                            "0.000000"
                        ],
                        [
                            "-1.678413",
                            "53.910434",
                            "0.000000"
                        ],
                        [
                            "-1.687656",
                            "53.914325",
                            "0.000000"
                        ],
                        [
                            "-1.696259",
                            "53.917144",
                            "0.000000"
                        ],
                        [
                            "-1.704887",
                            "53.918217",
                            "0.000000"
                        ],
                        [
                            "-1.712552",
                            "53.917571",
                            "0.000000"
                        ],
                        [
                            "-1.716873",
                            "53.914803",
                            "0.000000"
                        ],
                        [
                            "-1.720530",
                            "53.909969",
                            "0.000000"
                        ],
                        [
                            "-1.739235",
                            "53.913053",
                            "0.000000"
                        ],
                        [
                            "-1.749078",
                            "53.922638",
                            "0.000000"
                        ],
                        [
                            "-1.767809",
                            "53.923999",
                            "0.000000"
                        ],
                        [
                            "-1.781881",
                            "53.928860",
                            "0.000000"
                        ],
                        [
                            "-1.796328",
                            "53.931395",
                            "0.000000"
                        ],
                        [
                            "-1.803521",
                            "53.937918",
                            "0.000000"
                        ],
                        [
                            "-1.815603",
                            "53.938411",
                            "0.000000"
                        ],
                        [
                            "-1.830229",
                            "53.938680",
                            "0.000000"
                        ],
                        [
                            "-1.847672",
                            "53.940330",
                            "0.000000"
                        ],
                        [
                            "-1.845127",
                            "53.935118",
                            "0.000000"
                        ],
                        [
                            "-1.842850",
                            "53.932855",
                            "0.000000"
                        ],
                        [
                            "-1.862658",
                            "53.936564",
                            "0.000000"
                        ],
                        [
                            "-1.871681",
                            "53.943752",
                            "0.000000"
                        ],
                        [
                            "-1.878045",
                            "53.959630",
                            "0.000000"
                        ],
                        [
                            "-1.891500",
                            "53.956459",
                            "0.000000"
                        ],
                        [
                            "-1.903493",
                            "53.958268",
                            "0.000000"
                        ],
                        [
                            "-1.927961",
                            "53.950448",
                            "0.000000"
                        ],
                        [
                            "-1.962220",
                            "53.943695",
                            "0.000000"
                        ],
                        [
                            "-1.965756",
                            "53.937065",
                            "0.000000"
                        ],
                        [
                            "-1.971480",
                            "53.929887",
                            "0.000000"
                        ],
                        [
                            "-1.953151",
                            "53.911504",
                            "0.000000"
                        ],
                        [
                            "-1.958016",
                            "53.903346",
                            "0.000000"
                        ],
                        [
                            "-1.979479",
                            "53.900793",
                            "0.000000"
                        ],
                        [
                            "-1.978080",
                            "53.884190",
                            "0.000000"
                        ],
                        [
                            "-2.001469",
                            "53.871902",
                            "0.000000"
                        ],
                        [
                            "-2.048438",
                            "53.851512",
                            "0.000000"
                        ],
                        [
                            "-2.069566",
                            "53.860100",
                            "0.000000"
                        ],
                        [
                            "-2.077190",
                            "53.867043",
                            "0.000000"
                        ],
                        [
                            "-2.085915",
                            "53.871308",
                            "0.000000"
                        ],
                        [
                            "-2.098087",
                            "53.889183",
                            "0.000000"
                        ],
                        [
                            "-2.110236",
                            "53.909953",
                            "0.000000"
                        ],
                        [
                            "-2.124414",
                            "53.923190",
                            "0.000000"
                        ],
                        [
                            "-2.139960",
                            "53.928315",
                            "0.000000"
                        ],
                        [
                            "-2.155164",
                            "53.927557",
                            "0.000000"
                        ],
                        [
                            "-2.173700",
                            "53.936961",
                            "0.000000"
                        ],
                        [
                            "-2.184749",
                            "53.942471",
                            "0.000000"
                        ],
                        [
                            "-2.183755",
                            "53.949557",
                            "0.000000"
                        ],
                        [
                            "-2.198357",
                            "53.969877",
                            "0.000000"
                        ],
                        [
                            "-2.209206",
                            "53.963302",
                            "0.000000"
                        ],
                        [
                            "-2.225311",
                            "53.965273",
                            "0.000000"
                        ],
                        [
                            "-2.229923",
                            "53.973057",
                            "0.000000"
                        ],
                        [
                            "-2.228416",
                            "53.980128",
                            "0.000000"
                        ],
                        [
                            "-2.233828",
                            "53.981517",
                            "0.000000"
                        ],
                        [
                            "-2.237890",
                            "53.981018",
                            "0.000000"
                        ],
                        [
                            "-2.245800",
                            "53.979304",
                            "0.000000"
                        ],
                        [
                            "-2.287120",
                            "53.974469",
                            "0.000000"
                        ],
                        [
                            "-2.304899",
                            "53.983826",
                            "0.000000"
                        ],
                        [
                            "-2.313428",
                            "53.988439",
                            "0.000000"
                        ],
                        [
                            "-2.319746",
                            "53.993844",
                            "0.000000"
                        ],
                        [
                            "-2.336649",
                            "53.991619",
                            "0.000000"
                        ],
                        [
                            "-2.353461",
                            "54.004402",
                            "0.000000"
                        ],
                        [
                            "-2.341709",
                            "54.007912",
                            "0.000000"
                        ],
                        [
                            "-2.343404",
                            "54.016536",
                            "0.000000"
                        ],
                        [
                            "-2.360379",
                            "54.024489",
                            "0.000000"
                        ],
                        [
                            "-2.395755",
                            "54.043676",
                            "0.000000"
                        ],
                        [
                            "-2.456613",
                            "54.040164",
                            "0.000000"
                        ],
                        [
                            "-2.497245",
                            "54.090359",
                            "0.000000"
                        ],
                        [
                            "-2.525592",
                            "54.096131",
                            "0.000000"
                        ],
                        [
                            "-2.528230",
                            "54.102654",
                            "0.000000"
                        ],
                        [
                            "-2.536656",
                            "54.104078",
                            "0.000000"
                        ],
                        [
                            "-2.536613",
                            "54.109039",
                            "0.000000"
                        ],
                        [
                            "-2.544662",
                            "54.113214",
                            "0.000000"
                        ],
                        [
                            "-2.544738",
                            "54.116907",
                            "0.000000"
                        ],
                        [
                            "-2.563226",
                            "54.124879",
                            "0.000000"
                        ]
                    ]
                ]
            },
            "properties": {
                "stroke-width": 0,
                "fill": "4dedf7",
                "fill-opacity": 0.8
            }
        }
    ]
}