{
    "type": "FeatureCollection",
    "features": [
        {
            "type": "Feature",
            "geometry": {
                "type": "Polygon",
                "coordinates": [
                    [
                        [
                            "-1.218606",
                            "51.980303",
                            "0.000000"
                        ],
                        [
                            "-1.249011",
                            "51.985706",
                            "0.000000"
                        ],
                        [
                            "-1.254594",
                            "51.982715",
                            "0.000000"
                        ],
                        [
                            "-1.268996",
                            "51.982762",
                            "0.000000"
                        ],
                        [
                            "-1.285907",
                            "51.985422",
                            "0.000000"
                        ],
                        [
                            "-1.283186",
                            "51.991392",
                            "0.000000"
                        ],
                        [
                            "-1.282228",
                            "52.000378",
                            "0.000000"
                        ],
                        [
                            "-1.278431",
                            "52.007992",
                            "0.000000"
                        ],
                        [
                            "-1.278263",
                            "52.013185",
                            "0.000000"
                        ],
                        [
                            "-1.282733",
                            "52.019859",
                            "0.000000"
                        ],
                        [
                            "-1.284368",
                            "52.023657",
                            "0.000000"
                        ],
                        [
                            "-1.293515",
                            "52.027531",
                            "0.000000"
                        ],
                        [
                            "-1.294269",
                            "52.036772",
                            "0.000000"
                        ],
                        [
                            "-1.299738",
                            "52.043416",
                            "0.000000"
                        ],
                        [
                            "-1.310773",
                            "52.053860",
                            "0.000000"
                        ],
                        [
                            "-1.306263",
                            "52.071131",
                            "0.000000"
                        ],
                        [
                            "-1.318491",
                            "52.080112",
                            "0.000000"
                        ],
                        [
                            "-1.320666",
                            "52.085723",
                            "0.000000"
                        ],
                        [
                            "-1.303955",
                            "52.091642",
                            "0.000000"
                        ],
                        [
                            "-1.289387",
                            "52.092932",
                            "0.000000"
                        ],
                        [
                            "-1.271961",
                            "52.097874",
                            "0.000000"
                        ],
                        [
                            "-1.258689",
                            "52.096437",
                            "0.000000"
                        ],
                        [
                            "-1.257603",
                            "52.106747",
                            "0.000000"
                        ],
                        [
                            "-1.288384",
                            "52.127824",
                            "0.000000"
                        ],
                        [
                            "-1.308726",
                            "52.144227",
                            "0.000000"
                        ],
                        [
                            "-1.317760",
                            "52.154347",
                            "0.000000"
                        ],
                        [
                            "-1.330572",
                            "52.167559",
                            "0.000000"
                        ],
                        [
                            "-1.319693",
                            "52.181330",
                            "0.000000"
                        ],
                        [
                            "-1.291943",
                            "52.192097",
                            "0.000000"
                        ],
                        [
                            "-1.264229",
                            "52.196044",
                            "0.000000"
                        ],
                        [
                            "-1.269062",
                            "52.218492",
                            "0.000000"
                        ],
                        [
                            "-1.278460",
                            "52.228825",
                            "0.000000"
                        ],
                        [
                            "-1.270036",
                            "52.236227",
                            "0.000000"
                        ],
                        [
                            "-1.238229",
                            "52.248446",
                            "0.000000"
                        ],
                        [
                            "-1.232423",
                            "52.252719",
                            "0.000000"
                        ],
                        [
                            "-1.227363",
                            "52.256825",
                            "0.000000"
                        ],
                        [
                            "-1.220141",
                            "52.260917",
                            "0.000000"
                        ],
                        [
                            "-1.216903",
                            "52.267498",
                            "0.000000"
                        ],
                        [
                            "-1.219519",
                            "52.272196",
                            "0.000000"
                        ],
                        [
                            "-1.221540",
                            "52.277450",
                            "0.000000"
                        ],
                        [
                            "-1.222625",
                            "52.284627",
                            "0.000000"
                        ],
                        [
                            "-1.227701",
                            "52.289279",
                            "0.000000"
                        ],
                        [
                            "-1.231169",
                            "52.289840",
                            "0.000000"
                        ],
                        [
                            "-1.226542",
                            "52.300439",
                            "0.000000"
                        ],
                        [
                            "-1.212991",
                            "52.315708",
                            "0.000000"
                        ],
                        [
                            "-1.238554",
                            "52.320824",
                            "0.000000"
                        ],
                        [
                            "-1.247570",
                            "52.321924",
                            "0.000000"
                        ],
                        [
                            "-1.253778",
                            "52.324263",
                            "0.000000"
                        ],
                        [
                            "-1.262451",
                            "52.332175",
                            "0.000000"
                        ],
                        [
                            "-1.248735",
                            "52.340900",
                            "0.000000"
                        ],
                        [
                            "-1.234992",
                            "52.345718",
                            "0.000000"
                        ],
                        [
                            "-1.224192",
                            "52.348080",
                            "0.000000"
                        ],
                        [
                            "-1.219865",
                            "52.349714",
                            "0.000000"
                        ],
                        [
                            "-1.212950",
                            "52.349616",
                            "0.000000"
                        ],
                        [
                            "-1.208138",
                            "52.349626",
                            "0.000000"
                        ],
                        [
                            "-1.199934",
                            "52.352283",
                            "0.000000"
                        ],
                        [
                            "-1.196493",
                            "52.352949",
                            "0.000000"
                        ],
                        [
                            "-1.174941",
                            "52.356311",
                            "0.000000"
                        ],
                        [
                            "-1.189732",
                            "52.396420",
                            "0.000000"
                        ],
                        [
                            "-1.175897",
                            "52.394741",
                            "0.000000"
                        ],
                        [
                            "-1.167318",
                            "52.396650",
                            "0.000000"
                        ],
                        [
                            "-1.160944",
                            "52.399399",
                            "0.000000"
                        ],
                        [
                            "-1.151871",
                            "52.399000",
                            "0.000000"
                        ],
                        [
                            "-1.143937",
                            "52.399501",
                            "0.000000"
                        ],
                        [
                            "-1.134868",
                            "52.411014",
                            "0.000000"
                        ],
                        [
                            "-1.123469",
                            "52.417929",
                            "0.000000"
                        ],
                        [
                            "-1.115609",
                            "52.421301",
                            "0.000000"
                        ],
                        [
                            "-1.104434",
                            "52.424177",
                            "0.000000"
                        ],
                        [
                            "-1.093620",
                            "52.427558",
                            "0.000000"
                        ],
                        [
                            "-1.088238",
                            "52.433296",
                            "0.000000"
                        ],
                        [
                            "-1.076665",
                            "52.435074",
                            "0.000000"
                        ],
                        [
                            "-1.069697",
                            "52.432735",
                            "0.000000"
                        ],
                        [
                            "-1.066558",
                            "52.428861",
                            "0.000000"
                        ],
                        [
                            "-1.055042",
                            "52.422279",
                            "0.000000"
                        ],
                        [
                            "-1.033913",
                            "52.439208",
                            "0.000000"
                        ],
                        [
                            "-1.040850",
                            "52.448901",
                            "0.000000"
                        ],
                        [
                            "-1.028703",
                            "52.456838",
                            "0.000000"
                        ],
                        [
                            "-1.013240",
                            "52.463103",
                            "0.000000"
                        ],
                        [
                            "-0.996296",
                            "52.470380",
                            "0.000000"
                        ],
                        [
                            "-0.982721",
                            "52.471585",
                            "0.000000"
                        ],
                        [
                            "-0.972071",
                            "52.472575",
                            "0.000000"
                        ],
                        [
                            "-0.958157",
                            "52.475900",
                            "0.000000"
                        ],
                        [
                            "-0.946630",
                            "52.473910",
                            "0.000000"
                        ],
                        [
                            "-0.905670",
                            "52.463005",
                            "0.000000"
                        ],
                        [
                            "-0.885145",
                            "52.479099",
                            "0.000000"
                        ],
                        [
                            "-0.897757",
                            "52.487149",
                            "0.000000"
                        ],
                        [
                            "-0.894910",
                            "52.492270",
                            "0.000000"
                        ],
                        [
                            "-0.881033",
                            "52.501240",
                            "0.000000"
                        ],
                        [
                            "-0.880882",
                            "52.506142",
                            "0.000000"
                        ],
                        [
                            "-0.881535",
                            "52.512251",
                            "0.000000"
                        ],
                        [
                            "-0.878158",
                            "52.516092",
                            "0.000000"
                        ],
                        [
                            "-0.871818",
                            "52.519624",
                            "0.000000"
                        ],
                        [
                            "-0.864823",
                            "52.526813",
                            "0.000000"
                        ],
                        [
                            "-0.859136",
                            "52.526606",
                            "0.000000"
                        ],
                        [
                            "-0.850224",
                            "52.521650",
                            "0.000000"
                        ],
                        [
                            "-0.845535",
                            "52.519415",
                            "0.000000"
                        ],
                        [
                            "-0.837665",
                            "52.518747",
                            "0.000000"
                        ],
                        [
                            "-0.830961",
                            "52.518837",
                            "0.000000"
                        ],
                        [
                            "-0.822464",
                            "52.517464",
                            "0.000000"
                        ],
                        [
                            "-0.812940",
                            "52.516810",
                            "0.000000"
                        ],
                        [
                            "-0.801421",
                            "52.516603",
                            "0.000000"
                        ],
                        [
                            "-0.790886",
                            "52.514547",
                            "0.000000"
                        ],
                        [
                            "-0.782079",
                            "52.517166",
                            "0.000000"
                        ],
                        [
                            "-0.759053",
                            "52.511828",
                            "0.000000"
                        ],
                        [
                            "-0.747221",
                            "52.515839",
                            "0.000000"
                        ],
                        [
                            "-0.722830",
                            "52.522560",
                            "0.000000"
                        ],
                        [
                            "-0.708116",
                            "52.527818",
                            "0.000000"
                        ],
                        [
                            "-0.703584",
                            "52.532191",
                            "0.000000"
                        ],
                        [
                            "-0.698670",
                            "52.538640",
                            "0.000000"
                        ],
                        [
                            "-0.697573",
                            "52.545763",
                            "0.000000"
                        ],
                        [
                            "-0.685549",
                            "52.550029",
                            "0.000000"
                        ],
                        [
                            "-0.673785",
                            "52.560706",
                            "0.000000"
                        ],
                        [
                            "-0.671725",
                            "52.562875",
                            "0.000000"
                        ],
                        [
                            "-0.662738",
                            "52.567522",
                            "0.000000"
                        ],
                        [
                            "-0.641098",
                            "52.572012",
                            "0.000000"
                        ],
                        [
                            "-0.632969",
                            "52.575907",
                            "0.000000"
                        ],
                        [
                            "-0.622491",
                            "52.579707",
                            "0.000000"
                        ],
                        [
                            "-0.613963",
                            "52.584091",
                            "0.000000"
                        ],
                        [
                            "-0.601280",
                            "52.588708",
                            "0.000000"
                        ],
                        [
                            "-0.583855",
                            "52.593148",
                            "0.000000"
                        ],
                        [
                            "-0.577988",
                            "52.590163",
                            "0.000000"
                        ],
                        [
                            "-0.560677",
                            "52.589051",
                            "0.000000"
                        ],
                        [
                            "-0.545340",
                            "52.593410",
                            "0.000000"
                        ],
                        [
                            "-0.550470",
                            "52.604688",
                            "0.000000"
                        ],
                        [
                            "-0.542765",
                            "52.615586",
                            "0.000000"
                        ],
                        [
                            "-0.541063",
                            "52.624484",
                            "0.000000"
                        ],
                        [
                            "-0.535635",
                            "52.629336",
                            "0.000000"
                        ],
                        [
                            "-0.521036",
                            "52.638231",
                            "0.000000"
                        ],
                        [
                            "-0.512553",
                            "52.642946",
                            "0.000000"
                        ],
                        [
                            "-0.508893",
                            "52.642207",
                            "0.000000"
                        ],
                        [
                            "-0.496045",
                            "52.640102",
                            "0.000000"
                        ],
                        [
                            "-0.473599",
                            "52.628299",
                            "0.000000"
                        ],
                        [
                            "-0.485876",
                            "52.599177",
                            "0.000000"
                        ],
                        [
                            "-0.489420",
                            "52.580537",
                            "0.000000"
                        ],
                        [
                            "-0.419484",
                            "52.580900",
                            "0.000000"
                        ],
                        [
                            "-0.407948",
                            "52.566137",
                            "0.000000"
                        ],
                        [
                            "-0.416385",
                            "52.555418",
                            "0.000000"
                        ],
                        [
                            "-0.403230",
                            "52.545598",
                            "0.000000"
                        ],
                        [
                            "-0.413830",
                            "52.526417",
                            "0.000000"
                        ],
                        [
                            "-0.392247",
                            "52.519408",
                            "0.000000"
                        ],
                        [
                            "-0.357675",
                            "52.505740",
                            "0.000000"
                        ],
                        [
                            "-0.357727",
                            "52.498693",
                            "0.000000"
                        ],
                        [
                            "-0.357944",
                            "52.491767",
                            "0.000000"
                        ],
                        [
                            "-0.356029",
                            "52.486668",
                            "0.000000"
                        ],
                        [
                            "-0.349268",
                            "52.479310",
                            "0.000000"
                        ],
                        [
                            "-0.352895",
                            "52.461044",
                            "0.000000"
                        ],
                        [
                            "-0.369927",
                            "52.436241",
                            "0.000000"
                        ],
                        [
                            "-0.393967",
                            "52.419562",
                            "0.000000"
                        ],
                        [
                            "-0.437460",
                            "52.387676",
                            "0.000000"
                        ],
                        [
                            "-0.494263",
                            "52.381138",
                            "0.000000"
                        ],
                        [
                            "-0.485054",
                            "52.352571",
                            "0.000000"
                        ],
                        [
                            "-0.464664",
                            "52.327352",
                            "0.000000"
                        ],
                        [
                            "-0.518808",
                            "52.311180",
                            "0.000000"
                        ],
                        [
                            "-0.532174",
                            "52.272106",
                            "0.000000"
                        ],
                        [
                            "-0.558698",
                            "52.256083",
                            "0.000000"
                        ],
                        [
                            "-0.608210",
                            "52.278902",
                            "0.000000"
                        ],
                        [
                            "-0.653322",
                            "52.267661",
                            "0.000000"
                        ],
                        [
                            "-0.640137",
                            "52.229631",
                            "0.000000"
                        ],
                        [
                            "-0.668260",
                            "52.195240",
                            "0.000000"
                        ],
                        [
                            "-0.709606",
                            "52.188567",
                            "0.000000"
                        ],
                        [
                            "-0.738960",
                            "52.171664",
                            "0.000000"
                        ],
                        [
                            "-0.761816",
                            "52.163493",
                            "0.000000"
                        ],
                        [
                            "-0.783416",
                            "52.160265",
                            "0.000000"
                        ],
                        [
                            "-0.800147",
                            "52.157352",
                            "0.000000"
                        ],
                        [
                            "-0.812827",
                            "52.145669",
                            "0.000000"
                        ],
                        [
                            "-0.846741",
                            "52.129399",
                            "0.000000"
                        ],
                        [
                            "-0.880722",
                            "52.126320",
                            "0.000000"
                        ],
                        [
                            "-0.881788",
                            "52.119289",
                            "0.000000"
                        ],
                        [
                            "-0.886204",
                            "52.113523",
                            "0.000000"
                        ],
                        [
                            "-0.875136",
                            "52.112214",
                            "0.000000"
                        ],
                        [
                            "-0.869102",
                            "52.107950",
                            "0.000000"
                        ],
                        [
                            "-0.865373",
                            "52.103097",
                            "0.000000"
                        ],
                        [
                            "-0.865959",
                            "52.099282",
                            "0.000000"
                        ],
                        [
                            "-0.856706",
                            "52.095341",
                            "0.000000"
                        ],
                        [
                            "-0.849541",
                            "52.092114",
                            "0.000000"
                        ],
                        [
                            "-0.843714",
                            "52.085695",
                            "0.000000"
                        ],
                        [
                            "-0.835748",
                            "52.080027",
                            "0.000000"
                        ],
                        [
                            "-0.832015",
                            "52.071919",
                            "0.000000"
                        ],
                        [
                            "-0.841154",
                            "52.063439",
                            "0.000000"
                        ],
                        [
                            "-0.859273",
                            "52.063147",
                            "0.000000"
                        ],
                        [
                            "-0.852786",
                            "52.051361",
                            "0.000000"
                        ],
                        [
                            "-0.863086",
                            "52.045871",
                            "0.000000"
                        ],
                        [
                            "-0.872902",
                            "52.036998",
                            "0.000000"
                        ],
                        [
                            "-0.880051",
                            "52.028792",
                            "0.000000"
                        ],
                        [
                            "-0.900037",
                            "52.025673",
                            "0.000000"
                        ],
                        [
                            "-0.924239",
                            "52.036000",
                            "0.000000"
                        ],
                        [
                            "-0.930828",
                            "52.050883",
                            "0.000000"
                        ],
                        [
                            "-0.939408",
                            "52.062215",
                            "0.000000"
                        ],
                        [
                            "-0.964404",
                            "52.075285",
                            "0.000000"
                        ],
                        [
                            "-0.986537",
                            "52.070271",
                            "0.000000"
                        ],
                        [
                            "-1.003748",
                            "52.073249",
                            "0.000000"
                        ],
                        [
                            "-1.040220",
                            "52.074031",
                            "0.000000"
                        ],
                        [
                            "-1.029826",
                            "52.063110",
                            "0.000000"
                        ],
                        [
                            "-1.059455",
                            "52.061604",
                            "0.000000"
                        ],
                        [
                            "-1.078190",
                            "52.057730",
                            "0.000000"
                        ],
                        [
                            "-1.092346",
                            "52.051140",
                            "0.000000"
                        ],
                        [
                            "-1.105308",
                            "52.048258",
                            "0.000000"
                        ],
                        [
                            "-1.125922",
                            "52.039612",
                            "0.000000"
                        ],
                        [
                            "-1.131790",
                            "52.031939",
                            "0.000000"
                        ],
                        [
                            "-1.136556",
                            "52.021764",
                            "0.000000"
                        ],
                        [
                            "-1.130327",
                            "52.018221",
                            "0.000000"
                        ],
                        [
                            "-1.118862",
                            "52.016371",
                            "0.000000"
                        ],
                        [
                            "-1.141070",
                            "51.997548",
                            "0.000000"
                        ],
                        [
                            "-1.183042",
                            "51.981522",
                            "0.000000"
                        ],
                        [
                            "-1.198169",
                            "51.977314",
                            "0.000000"
                        ]
                    ]
                ]
            },
            "properties": {
                "stroke-width": 0,
                "fill": "4dedf7",
                "fill-opacity": 0.8
            }
        }
    ]
}