{
    "type": "FeatureCollection",
    "features": [
        {
            "type": "Feature",
            "geometry": {
                "type": "Polygon",
                "coordinates": [
                    [
                        [
                            "-0.553491",
                            "51.728371",
                            "0.000000"
                        ],
                        [
                            "-0.561019",
                            "51.710081",
                            "0.000000"
                        ],
                        [
                            "-0.543552",
                            "51.692530",
                            "0.000000"
                        ],
                        [
                            "-0.522477",
                            "51.678759",
                            "0.000000"
                        ],
                        [
                            "-0.512926",
                            "51.668169",
                            "0.000000"
                        ],
                        [
                            "-0.532595",
                            "51.647158",
                            "0.000000"
                        ],
                        [
                            "-0.531699",
                            "51.623925",
                            "0.000000"
                        ],
                        [
                            "-0.522364",
                            "51.604636",
                            "0.000000"
                        ],
                        [
                            "-0.500598",
                            "51.598703",
                            "0.000000"
                        ],
                        [
                            "-0.496227",
                            "51.588437",
                            "0.000000"
                        ],
                        [
                            "-0.486639",
                            "51.575831",
                            "0.000000"
                        ],
                        [
                            "-0.483233",
                            "51.565085",
                            "0.000000"
                        ],
                        [
                            "-0.476620",
                            "51.557944",
                            "0.000000"
                        ],
                        [
                            "-0.489318",
                            "51.546641",
                            "0.000000"
                        ],
                        [
                            "-0.495075",
                            "51.538895",
                            "0.000000"
                        ],
                        [
                            "-0.489882",
                            "51.530950",
                            "0.000000"
                        ],
                        [
                            "-0.492314",
                            "51.516967",
                            "0.000000"
                        ],
                        [
                            "-0.483894",
                            "51.508145",
                            "0.000000"
                        ],
                        [
                            "-0.484669",
                            "51.503583",
                            "0.000000"
                        ],
                        [
                            "-0.489053",
                            "51.499596",
                            "0.000000"
                        ],
                        [
                            "-0.490432",
                            "51.493914",
                            "0.000000"
                        ],
                        [
                            "-0.496542",
                            "51.489844",
                            "0.000000"
                        ],
                        [
                            "-0.499071",
                            "51.486707",
                            "0.000000"
                        ],
                        [
                            "-0.508135",
                            "51.469695",
                            "0.000000"
                        ],
                        [
                            "-0.526088",
                            "51.471134",
                            "0.000000"
                        ],
                        [
                            "-0.526604",
                            "51.440527",
                            "0.000000"
                        ],
                        [
                            "-0.539358",
                            "51.439112",
                            "0.000000"
                        ],
                        [
                            "-0.567830",
                            "51.450025",
                            "0.000000"
                        ],
                        [
                            "-0.589758",
                            "51.441475",
                            "0.000000"
                        ],
                        [
                            "-0.613995",
                            "51.403697",
                            "0.000000"
                        ],
                        [
                            "-0.618666",
                            "51.387233",
                            "0.000000"
                        ],
                        [
                            "-0.657398",
                            "51.386476",
                            "0.000000"
                        ],
                        [
                            "-0.747815",
                            "51.352455",
                            "0.000000"
                        ],
                        [
                            "-0.776286",
                            "51.332644",
                            "0.000000"
                        ],
                        [
                            "-0.789078",
                            "51.339135",
                            "0.000000"
                        ],
                        [
                            "-0.805775",
                            "51.341317",
                            "0.000000"
                        ],
                        [
                            "-0.818865",
                            "51.347883",
                            "0.000000"
                        ],
                        [
                            "-0.829902",
                            "51.352863",
                            "0.000000"
                        ],
                        [
                            "-0.849946",
                            "51.352978",
                            "0.000000"
                        ],
                        [
                            "-0.868912",
                            "51.354314",
                            "0.000000"
                        ],
                        [
                            "-0.881800",
                            "51.353771",
                            "0.000000"
                        ],
                        [
                            "-0.893269",
                            "51.356554",
                            "0.000000"
                        ],
                        [
                            "-0.906189",
                            "51.359167",
                            "0.000000"
                        ],
                        [
                            "-0.917746",
                            "51.363889",
                            "0.000000"
                        ],
                        [
                            "-0.932162",
                            "51.364618",
                            "0.000000"
                        ],
                        [
                            "-0.951477",
                            "51.362649",
                            "0.000000"
                        ],
                        [
                            "-0.987589",
                            "51.361912",
                            "0.000000"
                        ],
                        [
                            "-1.043003",
                            "51.358242",
                            "0.000000"
                        ],
                        [
                            "-1.074628",
                            "51.375024",
                            "0.000000"
                        ],
                        [
                            "-1.115422",
                            "51.362320",
                            "0.000000"
                        ],
                        [
                            "-1.189875",
                            "51.363353",
                            "0.000000"
                        ],
                        [
                            "-1.210981",
                            "51.367042",
                            "0.000000"
                        ],
                        [
                            "-1.220649",
                            "51.367462",
                            "0.000000"
                        ],
                        [
                            "-1.233338",
                            "51.367078",
                            "0.000000"
                        ],
                        [
                            "-1.242261",
                            "51.366868",
                            "0.000000"
                        ],
                        [
                            "-1.247224",
                            "51.371083",
                            "0.000000"
                        ],
                        [
                            "-1.257191",
                            "51.371981",
                            "0.000000"
                        ],
                        [
                            "-1.262993",
                            "51.369851",
                            "0.000000"
                        ],
                        [
                            "-1.270943",
                            "51.368419",
                            "0.000000"
                        ],
                        [
                            "-1.280717",
                            "51.368434",
                            "0.000000"
                        ],
                        [
                            "-1.287850",
                            "51.368375",
                            "0.000000"
                        ],
                        [
                            "-1.294062",
                            "51.370807",
                            "0.000000"
                        ],
                        [
                            "-1.301742",
                            "51.370721",
                            "0.000000"
                        ],
                        [
                            "-1.311010",
                            "51.372477",
                            "0.000000"
                        ],
                        [
                            "-1.322425",
                            "51.371590",
                            "0.000000"
                        ],
                        [
                            "-1.331534",
                            "51.370716",
                            "0.000000"
                        ],
                        [
                            "-1.340674",
                            "51.368936",
                            "0.000000"
                        ],
                        [
                            "-1.348554",
                            "51.367264",
                            "0.000000"
                        ],
                        [
                            "-1.360588",
                            "51.367826",
                            "0.000000"
                        ],
                        [
                            "-1.372783",
                            "51.368079",
                            "0.000000"
                        ],
                        [
                            "-1.382214",
                            "51.368830",
                            "0.000000"
                        ],
                        [
                            "-1.401416",
                            "51.371477",
                            "0.000000"
                        ],
                        [
                            "-1.410430",
                            "51.372668",
                            "0.000000"
                        ],
                        [
                            "-1.426722",
                            "51.360054",
                            "0.000000"
                        ],
                        [
                            "-1.440969",
                            "51.346360",
                            "0.000000"
                        ],
                        [
                            "-1.469504",
                            "51.332012",
                            "0.000000"
                        ],
                        [
                            "-1.497631",
                            "51.332953",
                            "0.000000"
                        ],
                        [
                            "-1.495234",
                            "51.352801",
                            "0.000000"
                        ],
                        [
                            "-1.497054",
                            "51.369333",
                            "0.000000"
                        ],
                        [
                            "-1.521048",
                            "51.379044",
                            "0.000000"
                        ],
                        [
                            "-1.537932",
                            "51.387828",
                            "0.000000"
                        ],
                        [
                            "-1.553654",
                            "51.401907",
                            "0.000000"
                        ],
                        [
                            "-1.559246",
                            "51.408604",
                            "0.000000"
                        ],
                        [
                            "-1.563418",
                            "51.420960",
                            "0.000000"
                        ],
                        [
                            "-1.527224",
                            "51.426143",
                            "0.000000"
                        ],
                        [
                            "-1.534208",
                            "51.456045",
                            "0.000000"
                        ],
                        [
                            "-1.560834",
                            "51.473089",
                            "0.000000"
                        ],
                        [
                            "-1.583337",
                            "51.497368",
                            "0.000000"
                        ],
                        [
                            "-1.588474",
                            "51.524705",
                            "0.000000"
                        ],
                        [
                            "-1.610882",
                            "51.531750",
                            "0.000000"
                        ],
                        [
                            "-1.638821",
                            "51.559395",
                            "0.000000"
                        ],
                        [
                            "-1.677118",
                            "51.569574",
                            "0.000000"
                        ],
                        [
                            "-1.681456",
                            "51.572552",
                            "0.000000"
                        ],
                        [
                            "-1.684876",
                            "51.574757",
                            "0.000000"
                        ],
                        [
                            "-1.686315",
                            "51.587488",
                            "0.000000"
                        ],
                        [
                            "-1.685540",
                            "51.590977",
                            "0.000000"
                        ],
                        [
                            "-1.686487",
                            "51.593494",
                            "0.000000"
                        ],
                        [
                            "-1.688119",
                            "51.597917",
                            "0.000000"
                        ],
                        [
                            "-1.688855",
                            "51.601473",
                            "0.000000"
                        ],
                        [
                            "-1.690623",
                            "51.605278",
                            "0.000000"
                        ],
                        [
                            "-1.683223",
                            "51.609072",
                            "0.000000"
                        ],
                        [
                            "-1.677505",
                            "51.612676",
                            "0.000000"
                        ],
                        [
                            "-1.668148",
                            "51.615617",
                            "0.000000"
                        ],
                        [
                            "-1.672701",
                            "51.623047",
                            "0.000000"
                        ],
                        [
                            "-1.663709",
                            "51.631043",
                            "0.000000"
                        ],
                        [
                            "-1.675767",
                            "51.641550",
                            "0.000000"
                        ],
                        [
                            "-1.681562",
                            "51.647533",
                            "0.000000"
                        ],
                        [
                            "-1.685902",
                            "51.650759",
                            "0.000000"
                        ],
                        [
                            "-1.690989",
                            "51.653823",
                            "0.000000"
                        ],
                        [
                            "-1.691402",
                            "51.664238",
                            "0.000000"
                        ],
                        [
                            "-1.696628",
                            "51.669241",
                            "0.000000"
                        ],
                        [
                            "-1.696019",
                            "51.678023",
                            "0.000000"
                        ],
                        [
                            "-1.683938",
                            "51.688753",
                            "0.000000"
                        ],
                        [
                            "-1.675736",
                            "51.684160",
                            "0.000000"
                        ],
                        [
                            "-1.664707",
                            "51.681618",
                            "0.000000"
                        ],
                        [
                            "-1.652997",
                            "51.686986",
                            "0.000000"
                        ],
                        [
                            "-1.662310",
                            "51.696408",
                            "0.000000"
                        ],
                        [
                            "-1.687467",
                            "51.712969",
                            "0.000000"
                        ],
                        [
                            "-1.689776",
                            "51.716699",
                            "0.000000"
                        ],
                        [
                            "-1.693733",
                            "51.721537",
                            "0.000000"
                        ],
                        [
                            "-1.693951",
                            "51.749023",
                            "0.000000"
                        ],
                        [
                            "-1.694334",
                            "51.793717",
                            "0.000000"
                        ],
                        [
                            "-1.678709",
                            "51.849416",
                            "0.000000"
                        ],
                        [
                            "-1.673597",
                            "51.874000",
                            "0.000000"
                        ],
                        [
                            "-1.661718",
                            "51.894343",
                            "0.000000"
                        ],
                        [
                            "-1.647931",
                            "51.895038",
                            "0.000000"
                        ],
                        [
                            "-1.634201",
                            "51.898457",
                            "0.000000"
                        ],
                        [
                            "-1.635930",
                            "51.907155",
                            "0.000000"
                        ],
                        [
                            "-1.634369",
                            "51.911727",
                            "0.000000"
                        ],
                        [
                            "-1.639217",
                            "51.912577",
                            "0.000000"
                        ],
                        [
                            "-1.642857",
                            "51.912872",
                            "0.000000"
                        ],
                        [
                            "-1.644220",
                            "51.915534",
                            "0.000000"
                        ],
                        [
                            "-1.643144",
                            "51.918950",
                            "0.000000"
                        ],
                        [
                            "-1.642870",
                            "51.923887",
                            "0.000000"
                        ],
                        [
                            "-1.625865",
                            "51.950344",
                            "0.000000"
                        ],
                        [
                            "-1.654121",
                            "51.957371",
                            "0.000000"
                        ],
                        [
                            "-1.668061",
                            "51.973791",
                            "0.000000"
                        ],
                        [
                            "-1.649452",
                            "51.980573",
                            "0.000000"
                        ],
                        [
                            "-1.633673",
                            "51.971517",
                            "0.000000"
                        ],
                        [
                            "-1.619915",
                            "51.960658",
                            "0.000000"
                        ],
                        [
                            "-1.598167",
                            "51.975089",
                            "0.000000"
                        ],
                        [
                            "-1.560390",
                            "51.977816",
                            "0.000000"
                        ],
                        [
                            "-1.554971",
                            "51.991665",
                            "0.000000"
                        ],
                        [
                            "-1.547002",
                            "51.994638",
                            "0.000000"
                        ],
                        [
                            "-1.534778",
                            "51.994309",
                            "0.000000"
                        ],
                        [
                            "-1.514712",
                            "52.016204",
                            "0.000000"
                        ],
                        [
                            "-1.501861",
                            "52.049529",
                            "0.000000"
                        ],
                        [
                            "-1.501200",
                            "52.070986",
                            "0.000000"
                        ],
                        [
                            "-1.493283",
                            "52.079877",
                            "0.000000"
                        ],
                        [
                            "-1.488025",
                            "52.092629",
                            "0.000000"
                        ],
                        [
                            "-1.456243",
                            "52.098047",
                            "0.000000"
                        ],
                        [
                            "-1.447155",
                            "52.115850",
                            "0.000000"
                        ],
                        [
                            "-1.429115",
                            "52.117704",
                            "0.000000"
                        ],
                        [
                            "-1.413647",
                            "52.114729",
                            "0.000000"
                        ],
                        [
                            "-1.403044",
                            "52.109174",
                            "0.000000"
                        ],
                        [
                            "-1.398349",
                            "52.103231",
                            "0.000000"
                        ],
                        [
                            "-1.387517",
                            "52.096965",
                            "0.000000"
                        ],
                        [
                            "-1.365733",
                            "52.100164",
                            "0.000000"
                        ],
                        [
                            "-1.358706",
                            "52.103279",
                            "0.000000"
                        ],
                        [
                            "-1.359862",
                            "52.105601",
                            "0.000000"
                        ],
                        [
                            "-1.362671",
                            "52.107898",
                            "0.000000"
                        ],
                        [
                            "-1.365430",
                            "52.110185",
                            "0.000000"
                        ],
                        [
                            "-1.369852",
                            "52.112494",
                            "0.000000"
                        ],
                        [
                            "-1.371419",
                            "52.116172",
                            "0.000000"
                        ],
                        [
                            "-1.376688",
                            "52.118022",
                            "0.000000"
                        ],
                        [
                            "-1.392205",
                            "52.117079",
                            "0.000000"
                        ],
                        [
                            "-1.384912",
                            "52.128205",
                            "0.000000"
                        ],
                        [
                            "-1.364689",
                            "52.136465",
                            "0.000000"
                        ],
                        [
                            "-1.349653",
                            "52.141619",
                            "0.000000"
                        ],
                        [
                            "-1.340628",
                            "52.156680",
                            "0.000000"
                        ],
                        [
                            "-1.333859",
                            "52.165457",
                            "0.000000"
                        ],
                        [
                            "-1.319465",
                            "52.156752",
                            "0.000000"
                        ],
                        [
                            "-1.311488",
                            "52.148318",
                            "0.000000"
                        ],
                        [
                            "-1.295155",
                            "52.134574",
                            "0.000000"
                        ],
                        [
                            "-1.270023",
                            "52.113422",
                            "0.000000"
                        ],
                        [
                            "-1.248250",
                            "52.095718",
                            "0.000000"
                        ],
                        [
                            "-1.268468",
                            "52.097762",
                            "0.000000"
                        ],
                        [
                            "-1.285136",
                            "52.093337",
                            "0.000000"
                        ],
                        [
                            "-1.297797",
                            "52.092080",
                            "0.000000"
                        ],
                        [
                            "-1.320922",
                            "52.087196",
                            "0.000000"
                        ],
                        [
                            "-1.320442",
                            "52.082579",
                            "0.000000"
                        ],
                        [
                            "-1.302021",
                            "52.075066",
                            "0.000000"
                        ],
                        [
                            "-1.309105",
                            "52.060674",
                            "0.000000"
                        ],
                        [
                            "-1.302401",
                            "52.045912",
                            "0.000000"
                        ],
                        [
                            "-1.294619",
                            "52.037773",
                            "0.000000"
                        ],
                        [
                            "-1.293019",
                            "52.029869",
                            "0.000000"
                        ],
                        [
                            "-1.283856",
                            "52.024942",
                            "0.000000"
                        ],
                        [
                            "-1.284559",
                            "52.021356",
                            "0.000000"
                        ],
                        [
                            "-1.280144",
                            "52.016115",
                            "0.000000"
                        ],
                        [
                            "-1.284231",
                            "52.009778",
                            "0.000000"
                        ],
                        [
                            "-1.280816",
                            "52.001451",
                            "0.000000"
                        ],
                        [
                            "-1.282778",
                            "51.993219",
                            "0.000000"
                        ],
                        [
                            "-1.287040",
                            "51.988968",
                            "0.000000"
                        ],
                        [
                            "-1.281070",
                            "51.981507",
                            "0.000000"
                        ],
                        [
                            "-1.255521",
                            "51.982746",
                            "0.000000"
                        ],
                        [
                            "-1.251829",
                            "51.984091",
                            "0.000000"
                        ],
                        [
                            "-1.230247",
                            "51.981865",
                            "0.000000"
                        ],
                        [
                            "-1.194318",
                            "51.979313",
                            "0.000000"
                        ],
                        [
                            "-1.178746",
                            "51.982088",
                            "0.000000"
                        ],
                        [
                            "-1.133522",
                            "52.000059",
                            "0.000000"
                        ],
                        [
                            "-1.121410",
                            "52.016987",
                            "0.000000"
                        ],
                        [
                            "-1.131995",
                            "52.018780",
                            "0.000000"
                        ],
                        [
                            "-1.136523",
                            "52.022334",
                            "0.000000"
                        ],
                        [
                            "-1.130884",
                            "52.033282",
                            "0.000000"
                        ],
                        [
                            "-1.123027",
                            "52.042388",
                            "0.000000"
                        ],
                        [
                            "-1.101670",
                            "52.048164",
                            "0.000000"
                        ],
                        [
                            "-1.087919",
                            "52.052305",
                            "0.000000"
                        ],
                        [
                            "-1.076825",
                            "52.058618",
                            "0.000000"
                        ],
                        [
                            "-1.050411",
                            "52.061090",
                            "0.000000"
                        ],
                        [
                            "-1.027645",
                            "52.067014",
                            "0.000000"
                        ],
                        [
                            "-1.023914",
                            "52.075025",
                            "0.000000"
                        ],
                        [
                            "-0.997467",
                            "52.072749",
                            "0.000000"
                        ],
                        [
                            "-0.982959",
                            "52.069927",
                            "0.000000"
                        ],
                        [
                            "-0.951022",
                            "52.080360",
                            "0.000000"
                        ],
                        [
                            "-0.937498",
                            "52.059962",
                            "0.000000"
                        ],
                        [
                            "-0.930275",
                            "52.045597",
                            "0.000000"
                        ],
                        [
                            "-0.915312",
                            "52.030441",
                            "0.000000"
                        ],
                        [
                            "-0.896858",
                            "52.027395",
                            "0.000000"
                        ],
                        [
                            "-0.876632",
                            "52.032137",
                            "0.000000"
                        ],
                        [
                            "-0.871803",
                            "52.041793",
                            "0.000000"
                        ],
                        [
                            "-0.859354",
                            "52.044577",
                            "0.000000"
                        ],
                        [
                            "-0.860640",
                            "52.054747",
                            "0.000000"
                        ],
                        [
                            "-0.853563",
                            "52.064224",
                            "0.000000"
                        ],
                        [
                            "-0.832395",
                            "52.071342",
                            "0.000000"
                        ],
                        [
                            "-0.835261",
                            "52.079757",
                            "0.000000"
                        ],
                        [
                            "-0.843816",
                            "52.084846",
                            "0.000000"
                        ],
                        [
                            "-0.848827",
                            "52.092095",
                            "0.000000"
                        ],
                        [
                            "-0.856190",
                            "52.094253",
                            "0.000000"
                        ],
                        [
                            "-0.865024",
                            "52.099214",
                            "0.000000"
                        ],
                        [
                            "-0.865492",
                            "52.102435",
                            "0.000000"
                        ],
                        [
                            "-0.870105",
                            "52.107808",
                            "0.000000"
                        ],
                        [
                            "-0.874263",
                            "52.112300",
                            "0.000000"
                        ],
                        [
                            "-0.885564",
                            "52.113330",
                            "0.000000"
                        ],
                        [
                            "-0.881650",
                            "52.118947",
                            "0.000000"
                        ],
                        [
                            "-0.880583",
                            "52.125276",
                            "0.000000"
                        ],
                        [
                            "-0.848562",
                            "52.129481",
                            "0.000000"
                        ],
                        [
                            "-0.812839",
                            "52.144985",
                            "0.000000"
                        ],
                        [
                            "-0.801967",
                            "52.158627",
                            "0.000000"
                        ],
                        [
                            "-0.784028",
                            "52.158880",
                            "0.000000"
                        ],
                        [
                            "-0.762215",
                            "52.163944",
                            "0.000000"
                        ],
                        [
                            "-0.738959",
                            "52.171127",
                            "0.000000"
                        ],
                        [
                            "-0.710301",
                            "52.188508",
                            "0.000000"
                        ],
                        [
                            "-0.668143",
                            "52.194982",
                            "0.000000"
                        ],
                        [
                            "-0.637204",
                            "52.183153",
                            "0.000000"
                        ],
                        [
                            "-0.634822",
                            "52.168343",
                            "0.000000"
                        ],
                        [
                            "-0.637224",
                            "52.145112",
                            "0.000000"
                        ],
                        [
                            "-0.615622",
                            "52.133482",
                            "0.000000"
                        ],
                        [
                            "-0.596967",
                            "52.118768",
                            "0.000000"
                        ],
                        [
                            "-0.600889",
                            "52.104290",
                            "0.000000"
                        ],
                        [
                            "-0.608712",
                            "52.091177",
                            "0.000000"
                        ],
                        [
                            "-0.627820",
                            "52.082518",
                            "0.000000"
                        ],
                        [
                            "-0.642167",
                            "52.067316",
                            "0.000000"
                        ],
                        [
                            "-0.663308",
                            "52.052585",
                            "0.000000"
                        ],
                        [
                            "-0.643101",
                            "52.028127",
                            "0.000000"
                        ],
                        [
                            "-0.649775",
                            "52.010013",
                            "0.000000"
                        ],
                        [
                            "-0.655470",
                            "51.987266",
                            "0.000000"
                        ],
                        [
                            "-0.647764",
                            "51.971481",
                            "0.000000"
                        ],
                        [
                            "-0.655510",
                            "51.961149",
                            "0.000000"
                        ],
                        [
                            "-0.671140",
                            "51.949613",
                            "0.000000"
                        ],
                        [
                            "-0.682063",
                            "51.939809",
                            "0.000000"
                        ],
                        [
                            "-0.691483",
                            "51.922660",
                            "0.000000"
                        ],
                        [
                            "-0.688799",
                            "51.900163",
                            "0.000000"
                        ],
                        [
                            "-0.667791",
                            "51.897298",
                            "0.000000"
                        ],
                        [
                            "-0.658030",
                            "51.890374",
                            "0.000000"
                        ],
                        [
                            "-0.643248",
                            "51.884302",
                            "0.000000"
                        ],
                        [
                            "-0.619733",
                            "51.885215",
                            "0.000000"
                        ],
                        [
                            "-0.577767",
                            "51.866104",
                            "0.000000"
                        ],
                        [
                            "-0.569469",
                            "51.851931",
                            "0.000000"
                        ],
                        [
                            "-0.543090",
                            "51.833745",
                            "0.000000"
                        ],
                        [
                            "-0.557153",
                            "51.830911",
                            "0.000000"
                        ],
                        [
                            "-0.575089",
                            "51.815066",
                            "0.000000"
                        ],
                        [
                            "-0.608077",
                            "51.812220",
                            "0.000000"
                        ],
                        [
                            "-0.629348",
                            "51.818178",
                            "0.000000"
                        ],
                        [
                            "-0.668824",
                            "51.817159",
                            "0.000000"
                        ],
                        [
                            "-0.680257",
                            "51.829938",
                            "0.000000"
                        ],
                        [
                            "-0.689858",
                            "51.853216",
                            "0.000000"
                        ],
                        [
                            "-0.718813",
                            "51.856559",
                            "0.000000"
                        ],
                        [
                            "-0.731696",
                            "51.848303",
                            "0.000000"
                        ],
                        [
                            "-0.740340",
                            "51.835288",
                            "0.000000"
                        ],
                        [
                            "-0.711622",
                            "51.818622",
                            "0.000000"
                        ],
                        [
                            "-0.683207",
                            "51.795522",
                            "0.000000"
                        ],
                        [
                            "-0.676141",
                            "51.778564",
                            "0.000000"
                        ],
                        [
                            "-0.652779",
                            "51.759615",
                            "0.000000"
                        ],
                        [
                            "-0.623641",
                            "51.753651",
                            "0.000000"
                        ],
                        [
                            "-0.590405",
                            "51.751807",
                            "0.000000"
                        ],
                        [
                            "-0.566807",
                            "51.738986",
                            "0.000000"
                        ],
                        [
                            "-0.553931",
                            "51.734004",
                            "0.000000"
                        ]
                    ]
                ]
            },
            "properties": {
                "stroke-width": 0,
                "fill": "4dedf7",
                "fill-opacity": 0.8
            }
        }
    ]
}